CORE_TB.vcd
$date
	Thu May 21 22:59:48 2026
$end
$version
	Icarus Verilog
$end
$timescale
	1s
$end
$scope module CORE_TB $end
$var wire 32 ! comm_data_out [31:0] $end
$var reg 1 " clk $end
$var reg 32 # comm_data_in [31:0] $end
$var reg 1 $ cpu_halt $end
$var reg 1 % interrupt $end
$var reg 1 & load_done $end
$var reg 32 ' loader_addr [31:0] $end
$var reg 32 ( loader_data [31:0] $end
$var reg 1 ) loader_we $end
$var reg 1 * reset $end
$var integer 32 + prog_i [31:0] $end
$var integer 32 , program_len [31:0] $end
$var integer 32 - test_fail [31:0] $end
$var integer 32 . test_num [31:0] $end
$var integer 32 / test_pass [31:0] $end
$scope function read_dcache $end
$var reg 32 0 word_idx [31:0] $end
$upscope $end
$scope function read_icache $end
$var reg 32 1 word_idx [31:0] $end
$upscope $end
$scope function read_reg $end
$var reg 5 2 idx [4:0] $end
$upscope $end
$scope module uut $end
$var wire 1 " clk $end
$var wire 32 3 comm_data_in [31:0] $end
$var wire 32 4 comm_data_out [31:0] $end
$var wire 1 $ cpu_halt $end
$var wire 32 5 csr_mepc [31:0] $end
$var wire 1 % interrupt $end
$var wire 1 & load_done $end
$var wire 32 6 loader_addr [31:0] $end
$var wire 32 7 loader_data [31:0] $end
$var wire 1 ) loader_we $end
$var wire 1 * reset $end
$var wire 32 8 wb_result_out [31:0] $end
$var wire 32 9 wb_out [31:0] $end
$var wire 2 : wb_control_out [1:0] $end
$var wire 1 ; wb_controlZ $end
$var wire 2 < wb_cntrlM [1:0] $end
$var wire 2 = wb_cntrl [1:0] $end
$var wire 1 > stallF $end
$var wire 1 ? stallD $end
$var wire 5 @ rs2_addr_outE [4:0] $end
$var wire 5 A rs2_addr_out [4:0] $end
$var wire 5 B rs2D_wire [4:0] $end
$var wire 5 C rs1_addr_outE [4:0] $end
$var wire 5 D rs1_addr_out [4:0] $end
$var wire 5 E rs1D_wire [4:0] $end
$var wire 32 F result_out [31:0] $end
$var wire 1 G reg_write_hazard $end
$var wire 1 H reg_write_en $end
$var wire 1 I reg_writeM $end
$var wire 1 J reg_writeD $end
$var wire 5 K rd_addr_d [4:0] $end
$var wire 5 L rdW [4:0] $end
$var wire 5 M rdM_hazard_out [4:0] $end
$var wire 5 N rdM [4:0] $end
$var wire 5 O rdE [4:0] $end
$var wire 32 P rd2 [31:0] $end
$var wire 32 Q rd1 [31:0] $end
$var wire 1 R pc_src $end
$var wire 32 S pc_out_fetch [31:0] $end
$var wire 32 T pc_out_decode [31:0] $end
$var wire 32 U pc_4_out_fetch [31:0] $end
$var wire 32 V pc_4_out_decode [31:0] $end
$var wire 32 W pc_4_outM [31:0] $end
$var wire 32 X pc_4_outE [31:0] $end
$var wire 32 Y mem_write_data [31:0] $end
$var wire 1 Z mem_writeM $end
$var wire 1 [ mem_writeD $end
$var wire 32 \ mem_result_out [31:0] $end
$var wire 3 ] mdu_control [2:0] $end
$var wire 1 ^ jump $end
$var wire 1 _ isa_slct $end
$var wire 32 ` instruction_out [31:0] $end
$var wire 32 a imm [31:0] $end
$var wire 3 b funct3_out_execute [2:0] $end
$var wire 3 c funct3_out_decode [2:0] $end
$var wire 2 d forwardB [1:0] $end
$var wire 2 e forwardA [1:0] $end
$var wire 1 f flushE $end
$var wire 1 g flushD $end
$var wire 32 h execute_result_out [31:0] $end
$var wire 8 i exception_type [7:0] $end
$var wire 1 j exception $end
$var wire 1 k csr_wr $end
$var wire 1 l csr_read_en $end
$var wire 1 m csr_rd $end
$var wire 32 n csr_mtvec [31:0] $end
$var wire 32 o csr_data_out [31:0] $end
$var wire 32 p csr_data [31:0] $end
$var wire 2 q csr_control [1:0] $end
$var wire 12 r csr_addr [11:0] $end
$var wire 32 s branch_target [31:0] $end
$var wire 1 t branch $end
$var wire 1 u alu_imm_en $end
$var wire 4 v alu_control [3:0] $end
$var reg 32 w csr_data_out_E [31:0] $end
$scope module CSR $end
$var wire 1 " clk $end
$var wire 32 x csr_mepc [31:0] $end
$var wire 1 y effective_exception $end
$var wire 1 z exception_edge $end
$var wire 1 % interrupt $end
$var wire 1 * reset $end
$var wire 32 { pc [31:0] $end
$var wire 32 | mtval_tmp [31:0] $end
$var wire 32 } mcause_tmp [31:0] $end
$var wire 1 ~ interrupt_allowed $end
$var wire 32 !" instr [31:0] $end
$var wire 8 "" exception_code [7:0] $end
$var wire 1 j exception $end
$var wire 1 k csr_wr $end
$var wire 1 m csr_rd $end
$var wire 32 #" csr_mtvec [31:0] $end
$var wire 32 $" csr_data_out [31:0] $end
$var wire 32 %" csr_data_in [31:0] $end
$var wire 2 &" csr_cntrl [1:0] $end
$var wire 12 '" csr_addr [11:0] $end
$var reg 1 (" exception_prev $end
$var reg 32 )" mcause [31:0] $end
$var reg 32 *" mepc [31:0] $end
$var reg 32 +" mie [31:0] $end
$var reg 32 ," mstatus [31:0] $end
$var reg 32 -" mtval [31:0] $end
$var reg 32 ." mtvec [31:0] $end
$upscope $end
$scope module DECODE $end
$var wire 1 " clk $end
$var wire 1 * reset $end
$var wire 5 /" rs1D [4:0] $end
$var wire 5 0" rs2D [4:0] $end
$var wire 32 1" wd [31:0] $end
$var wire 1 H we $end
$var wire 5 2" w_addr [4:0] $end
$var wire 5 3" shamt [4:0] $end
$var wire 5 4" rs2_addr [4:0] $end
$var wire 5 5" rs1_addr [4:0] $end
$var wire 5 6" rd_addr [4:0] $end
$var wire 32 7" rd2_wire [31:0] $end
$var wire 32 8" rd1_wire [31:0] $end
$var wire 32 9" pc_4 [31:0] $end
$var wire 32 :" pc [31:0] $end
$var wire 7 ;" opcode [6:0] $end
$var wire 32 <" instruction [31:0] $end
$var wire 32 =" immu_u [31:0] $end
$var wire 32 >" immu_s [31:0] $end
$var wire 32 ?" immu_i [31:0] $end
$var wire 32 @" immu_b [31:0] $end
$var wire 32 A" imms_u [31:0] $end
$var wire 32 B" imms_s [31:0] $end
$var wire 32 C" imms_i [31:0] $end
$var wire 32 D" imms_b [31:0] $end
$var wire 32 E" imm_u [31:0] $end
$var wire 32 F" imm_s [31:0] $end
$var wire 32 G" imm_j [31:0] $end
$var wire 32 H" imm_i [31:0] $end
$var wire 32 I" imm_b [31:0] $end
$var wire 7 J" funct7 [6:0] $end
$var wire 3 K" funct3 [2:0] $end
$var wire 1 f flushE $end
$var wire 1 L" csr_imm_en $end
$var wire 32 M" csr_imm [31:0] $end
$var parameter 7 N" b_logic $end
$var parameter 7 O" i_logic $end
$var parameter 7 P" l_logic $end
$var parameter 7 Q" r_logic $end
$var parameter 7 R" s_logic $end
$var parameter 7 S" sys_logic $end
$var reg 4 T" alu_control [3:0] $end
$var reg 4 U" alu_control_reg [3:0] $end
$var reg 1 u alu_imm_en $end
$var reg 1 V" alu_imm_en_reg $end
$var reg 1 t branch $end
$var reg 1 W" branch_reg $end
$var reg 12 X" csr_addr [11:0] $end
$var reg 2 Y" csr_control [1:0] $end
$var reg 32 Z" csr_data [31:0] $end
$var reg 1 m csr_rd $end
$var reg 1 l csr_read_en $end
$var reg 1 k csr_wr $end
$var reg 1 j exception $end
$var reg 8 [" exception_type [7:0] $end
$var reg 3 \" funct3_out [2:0] $end
$var reg 32 ]" imm [31:0] $end
$var reg 32 ^" imm_reg [31:0] $end
$var reg 1 _ isa_slct $end
$var reg 1 _" isa_slct_reg $end
$var reg 1 ^ jump $end
$var reg 1 `" jump_reg $end
$var reg 3 a" mdu_control [2:0] $end
$var reg 3 b" mdu_control_reg [2:0] $end
$var reg 1 [ mem_write $end
$var reg 1 c" mem_write_reg $end
$var reg 32 d" pc_4_out [31:0] $end
$var reg 32 e" pc_out [31:0] $end
$var reg 32 f" rd1 [31:0] $end
$var reg 32 g" rd2 [31:0] $end
$var reg 5 h" rd_addr_d [4:0] $end
$var reg 5 i" rd_addr_d_reg [4:0] $end
$var reg 1 J reg_write $end
$var reg 1 j" reg_write_reg $end
$var reg 5 k" rs1_addr_out [4:0] $end
$var reg 5 l" rs2_addr_out [4:0] $end
$var reg 1 m" un_sign $end
$var reg 2 n" wb_cntrl [1:0] $end
$var reg 2 o" wb_cntrl_reg [1:0] $end
$scope module REG_FILE $end
$var wire 5 p" A1 [4:0] $end
$var wire 5 q" A2 [4:0] $end
$var wire 32 r" RD1 [31:0] $end
$var wire 32 s" RD2 [31:0] $end
$var wire 32 t" WD [31:0] $end
$var wire 1 " clk $end
$var wire 1 * res $end
$var wire 1 H we $end
$var wire 5 u" A3 [4:0] $end
$scope begin $ivl_for_loop0 $end
$var integer 32 v" i [31:0] $end
$upscope $end
$upscope $end
$upscope $end
$scope module EXECUTE $end
$var wire 4 w" alu_control [3:0] $end
$var wire 1 u alu_imm_en $end
$var wire 1 t branch $end
$var wire 1 " clk $end
$var wire 32 x" csr_data_in [31:0] $end
$var wire 1 l csr_read_en $end
$var wire 3 y" funct3_in [2:0] $end
$var wire 32 z" imm [31:0] $end
$var wire 1 _ isa_slct $end
$var wire 1 ^ jump $end
$var wire 3 {" mdu_control [2:0] $end
$var wire 1 [ mem_writeD $end
$var wire 32 |" pc [31:0] $end
$var wire 32 }" pc_4 [31:0] $end
$var wire 1 R pc_src $end
$var wire 32 ~" rd1 [31:0] $end
$var wire 32 !# rd2 [31:0] $end
$var wire 5 "# rdE [4:0] $end
$var wire 5 ## rd_addr_d [4:0] $end
$var wire 1 J reg_writeD $end
$var wire 1 * reset $end
$var wire 5 $# rs1_addr_in [4:0] $end
$var wire 5 %# rs1_addr_outE [4:0] $end
$var wire 5 &# rs2_addr_in [4:0] $end
$var wire 5 '# rs2_addr_outE [4:0] $end
$var wire 2 (# wb_controlD [1:0] $end
$var wire 32 )# wb_result_in [31:0] $end
$var wire 1 ; wb_contorlZ $end
$var wire 32 *# pc_target_out [31:0] $end
$var wire 32 +# mdu_src_B [31:0] $end
$var wire 32 ,# mdu_src_A [31:0] $end
$var wire 32 -# mdu_result_out [31:0] $end
$var wire 2 .# forwardB [1:0] $end
$var wire 2 /# forwardA [1:0] $end
$var wire 32 0# exe_result_in [31:0] $end
$var wire 32 1# alu_src_B_imm [31:0] $end
$var wire 32 2# alu_src_B [31:0] $end
$var wire 32 3# alu_src_A [31:0] $end
$var wire 32 4# alu_result_out [31:0] $end
$var reg 3 5# funct3_out [2:0] $end
$var reg 1 Z mem_writeM $end
$var reg 32 6# mem_write_data [31:0] $end
$var reg 32 7# pc_4_out [31:0] $end
$var reg 5 8# rdM [4:0] $end
$var reg 1 I reg_writeM $end
$var reg 32 9# result_out [31:0] $end
$var reg 32 :# result_out_reg [31:0] $end
$var reg 2 ;# wb_controlM [1:0] $end
$scope module alu $end
$var wire 4 <# ALU_CNTR [3:0] $end
$var wire 32 =# s1 [31:0] $end
$var wire 32 ># s2 [31:0] $end
$var parameter 4 ?# ADD $end
$var parameter 4 @# AND $end
$var parameter 4 A# EQ $end
$var parameter 4 B# GE $end
$var parameter 4 C# GEU $end
$var parameter 4 D# LT $end
$var parameter 4 E# LTU $end
$var parameter 4 F# NE $end
$var parameter 4 G# OR $end
$var parameter 4 H# SLL $end
$var parameter 4 I# SLT $end
$var parameter 4 J# SLTU $end
$var parameter 4 K# SRA $end
$var parameter 4 L# SRL $end
$var parameter 4 M# SUB $end
$var parameter 4 N# XOR $end
$var reg 32 O# ALU_OUT [31:0] $end
$upscope $end
$scope module mdu $end
$var wire 32 P# d3 [31:0] $end
$var wire 3 Q# funct3 [2:0] $end
$var wire 32 R# s1 [31:0] $end
$var wire 32 S# s1_signed [31:0] $end
$var wire 32 T# s2 [31:0] $end
$var wire 32 U# s2_signed [31:0] $end
$var wire 64 V# mulhu_result [63:0] $end
$var wire 64 W# mulhsu_result [63:0] $end
$var wire 64 X# mul_result [63:0] $end
$var reg 32 Y# d3_reg [31:0] $end
$upscope $end
$upscope $end
$scope module FETCH $end
$var wire 32 Z# branch_target [31:0] $end
$var wire 32 [# cache_input [31:0] $end
$var wire 1 " clk $end
$var wire 1 $ cpu_halt $end
$var wire 1 j exception $end
$var wire 32 \# exception_handler_address [31:0] $end
$var wire 1 & load_done $end
$var wire 32 ]# loader_addr [31:0] $end
$var wire 32 ^# loader_data [31:0] $end
$var wire 1 ) loader_we $end
$var wire 1 R pc_src $end
$var wire 1 * reset $end
$var wire 1 > stallF $end
$var wire 1 ? stallD $end
$var wire 32 _# pc_4_out_reg [31:0] $end
$var wire 32 `# pc [31:0] $end
$var wire 32 a# instruction_out_reg [31:0] $end
$var wire 1 g flushD $end
$var wire 32 b# cache_w_data [31:0] $end
$var wire 32 c# cache_w_addr [31:0] $end
$var reg 32 d# instruction_out [31:0] $end
$var reg 32 e# pc_4_out [31:0] $end
$var reg 32 f# pc_out [31:0] $end
$var reg 32 g# pc_out_reg [31:0] $end
$scope module I_CACHE $end
$var wire 1 " clk $end
$var wire 32 h# inst_in [31:0] $end
$var wire 32 i# inst_out [31:0] $end
$var wire 32 j# r_addr [31:0] $end
$var wire 1 * reset $end
$var wire 32 k# w_addr [31:0] $end
$var wire 1 ) we $end
$scope begin $ivl_for_loop1 $end
$var integer 32 l# i [31:0] $end
$upscope $end
$upscope $end
$upscope $end
$scope module HAZARD_UNIT $end
$var wire 1 $ cpu_halt $end
$var wire 1 j exception $end
$var wire 1 g flushD $end
$var wire 1 f flushE $end
$var wire 1 m# lwstall $end
$var wire 1 R pc_src $end
$var wire 5 n# rdE [4:0] $end
$var wire 5 o# rdM [4:0] $end
$var wire 1 I reg_writeM $end
$var wire 1 ; result_srcE_zer $end
$var wire 5 p# rs1D [4:0] $end
$var wire 5 q# rs1E [4:0] $end
$var wire 5 r# rs2D [4:0] $end
$var wire 5 s# rs2E [4:0] $end
$var wire 1 ? stallD $end
$var wire 1 > stallF $end
$var wire 1 H reg_writeW $end
$var wire 5 t# rdW [4:0] $end
$var reg 2 u# forwardA [1:0] $end
$var reg 2 v# forwardB [1:0] $end
$upscope $end
$scope module MEM $end
$var wire 1 " clk $end
$var wire 32 w# execute_result_in [31:0] $end
$var wire 32 x# execute_result_out [31:0] $end
$var wire 3 y# funct3_in [2:0] $end
$var wire 1 Z mem_write $end
$var wire 32 z# mem_write_data [31:0] $end
$var wire 32 {# pc_4 [31:0] $end
$var wire 5 |# rdM [4:0] $end
$var wire 5 }# rdM_hazard_out [4:0] $end
$var wire 1 I reg_write $end
$var wire 1 G reg_write_hazard $end
$var wire 1 * reset $end
$var wire 2 ~# wb_controlM [1:0] $end
$var wire 32 !$ mem_result_out_temp [31:0] $end
$var reg 32 "$ mem_result_out [31:0] $end
$var reg 32 #$ pc_4_out [31:0] $end
$var reg 5 $$ rdW [4:0] $end
$var reg 1 H reg_write_en $end
$var reg 2 %$ wb_control_out [1:0] $end
$var reg 32 &$ wb_result_out [31:0] $end
$scope module D_CACHE $end
$var wire 1 " clk $end
$var wire 32 '$ data_in [31:0] $end
$var wire 3 ($ funct3 [2:0] $end
$var wire 32 )$ r_addr [31:0] $end
$var wire 1 * reset $end
$var wire 32 *$ w_addr [31:0] $end
$var wire 1 Z we $end
$var reg 32 +$ data_out [31:0] $end
$var reg 32 ,$ merged_data [31:0] $end
$var reg 8 -$ selected_byte [7:0] $end
$var reg 16 .$ selected_half [15:0] $end
$scope begin $ivl_for_loop2 $end
$var integer 32 /$ i [31:0] $end
$upscope $end
$upscope $end
$upscope $end
$upscope $end
$scope task check_dcache $end
$var reg 32 0$ actual [31:0] $end
$var reg 32 1$ expected [31:0] $end
$var reg 256 2$ test_name [255:0] $end
$var reg 32 3$ word_addr [31:0] $end
$upscope $end
$scope task check_reg $end
$var reg 32 4$ actual [31:0] $end
$var reg 32 5$ expected [31:0] $end
$var reg 5 6$ reg_idx [4:0] $end
$var reg 256 7$ test_name [255:0] $end
$upscope $end
$scope task do_reset $end
$upscope $end
$scope task dump_regs $end
$var integer 32 8$ ri [31:0] $end
$upscope $end
$scope task halt_cpu $end
$upscope $end
$scope task load_instruction $end
$var reg 32 9$ addr [31:0] $end
$var reg 32 :$ instr [31:0] $end
$upscope $end
$scope task load_program $end
$upscope $end
$scope task wait_cycles $end
$var integer 32 ;$ n [31:0] $end
$var integer 32 <$ wc [31:0] $end
$upscope $end
$upscope $end
$enddefinitions $end
$comment Show the parameter values. $end
$dumpall
b100 N#
b1 M#
b110 L#
b111 K#
b1001 J#
b1000 I#
b101 H#
b10 G#
b1101 F#
b1110 E#
b1100 D#
b1111 C#
b1011 B#
b1010 A#
b11 @#
b0 ?#
b1110011 S"
b100011 R"
b110011 Q"
b11 P"
b10011 O"
b1100011 N"
$end
#0
$dumpvars
bx <$
bx ;$
bx :$
bx 9$
bx 8$
bx 7$
bx 6$
bx 5$
bx 4$
bx 3$
bx 2$
bx 1$
bx 0$
bx /$
bx .$
bx -$
bx ,$
bx +$
bx *$
bx )$
bx ($
bx '$
bx &$
bx %$
bx $$
bx #$
bx "$
bx !$
bx ~#
bx }#
bx |#
bx {#
bx z#
bx y#
bx x#
bx w#
bx v#
bx u#
bx t#
bx s#
bx r#
bx q#
bx p#
bx o#
bx n#
1m#
bx l#
b0xxxxxxxxxxxxxxxxxxxxxxxxxxxxxx k#
b0xxxxxxxxxxxxxxxxxxxxxxxxxxxxxx j#
bx i#
b0 h#
bx g#
bx f#
bx e#
bx d#
bx00 c#
b0 b#
bx a#
bx `#
bx _#
b0 ^#
b0 ]#
bx00 \#
b0 [#
bx Z#
bx Y#
bx X#
bx W#
bx V#
bx U#
bx T#
bx S#
bx R#
bx Q#
bx P#
bx O#
bx >#
bx =#
bx <#
bx ;#
bx :#
bx 9#
bx 8#
bx 7#
bx 6#
bx 5#
bx 4#
bx 3#
bx 2#
bx 1#
bx 0#
bx /#
bx .#
bx -#
bx ,#
bx +#
bx *#
bx )#
bx (#
bx '#
bx &#
bx %#
bx $#
bx ##
bx "#
bx !#
bx ~"
bx }"
bx |"
bx {"
bx z"
bx y"
bx x"
bx w"
bx v"
bx u"
bx t"
bx s"
bx r"
bx q"
bx p"
bx o"
bx n"
xm"
bx l"
bx k"
xj"
bx i"
bx h"
bx g"
bx f"
bx e"
bx d"
xc"
bx b"
bx a"
x`"
x_"
bx ^"
bx ]"
bx \"
b0x ["
bx Z"
bx Y"
bx X"
xW"
xV"
bx U"
bx T"
b0xxxxx M"
xL"
bx K"
bx J"
b0xxxxxxxxxxxxxxxxxxxxxxxxxxxxxx0 I"
bx H"
bx0 G"
bx F"
bx000000000000 E"
b0xxxxxxxxxxxxxxxxxxxxxxxxxxxxxx0 D"
bx C"
bx B"
bx000000000000 A"
b0xxxxxxxxxxx0 @"
b0xxxxxxxxxxxx ?"
b0xxxxxxxxxxxx >"
bx000000000000 ="
bx <"
bx ;"
bx :"
bx 9"
bx 8"
bx 7"
bx 6"
bx 5"
bx 4"
bx 3"
bx 2"
bx 1"
bx 0"
bx /"
bx ."
bx -"
bx ,"
bx +"
bx *"
bx )"
x("
bx '"
bx &"
bx %"
bx $"
bx00 #"
b0x ""
bx !"
1~
b0x }
b0 |
bx {
xz
xy
bz x
bx w
bx v
xu
xt
bx s
bx r
bx q
bx p
bx o
bx00 n
xm
xl
xk
xj
b0x i
bx h
xg
1f
bx e
bx d
bx c
bx b
bx a
bx `
x_
x^
bx ]
bx \
x[
xZ
bx Y
bx X
bx W
bx V
bx U
bx T
bx S
xR
bx Q
bx P
bx O
bx N
bx M
bx L
bx K
xJ
xI
xH
xG
bx F
bx E
bx D
bx C
bx B
bx A
bx @
1?
1>
bx =
bx <
x;
bx :
bx 9
bx 8
b0 7
b0 6
bz 5
bz 4
b0 3
bx 2
bx 1
bx 0
b0 /
b0 .
b0 -
b0 ,
bx +
1*
0)
b0 (
b0 '
0&
0%
1$
b0 #
0"
bz !
$end
#5
b0 o
b0 $"
b0 k#
b0 c#
b0 a#
b0 i#
b0 j#
b0x00 `#
b0 :#
b0 V#
b0 W#
b0 n
b0 #"
b0 \#
0R
0;
b0 -#
b0 P#
b0 Y#
b0 4#
b0 O#
b0 1#
b0 >#
b0 2#
b0 X#
b0 U#
b0 +#
b0 T#
b0 3#
b0 =#
b0 S#
b0 ,#
b0 R#
b0 !$
b0 +$
b0 .$
b0 -$
b0 ,$
b0 9
b0 1"
b0 t"
b0 )#
b0 d
b0 .#
b0 v#
b0 e
b0 /#
b0 u#
b100 _#
b0 g#
b0 c
b0 \"
b0 y"
b0 V
b0 d"
b0 }"
b0 @
b0 '#
b0 s#
b0 A
b0 l"
b0 &#
b0 C
b0 %#
b0 q#
b0 D
b0 k"
b0 $#
b0 s
b0 *#
b0 Z#
b0 T
b0 e"
b0 |"
0^
0t
0[
0J
0l
0_
b0 =
b0 n"
b0 (#
b0 ]
b0 a"
b0 {"
b0 Q#
0u
b0 v
b0 T"
b0 w"
b0 <#
b0 a
b0 ]"
b0 z"
b0 O
b0 "#
b0 n#
b0 K
b0 h"
b0 ##
b0 P
b0 g"
b0 !#
b0 Q
b0 f"
b0 ~"
b0 b
b0 5#
b0 y#
b0 ($
b0 X
b0 7#
b0 {#
b0 <
b0 ;#
b0 ~#
0Z
0G
0I
b0 M
b0 }#
b0 N
b0 8#
b0 o#
b0 |#
b0 Y
b0 6#
b0 z#
b0 '$
b0 h
b0 0#
b0 x#
b0 F
b0 9#
b0 w#
b0 )$
b0 *$
b0 W
b0 #$
b0 8
b0 &$
b0 \
b0 "$
b0 L
b0 2"
b0 u"
b0 t#
b0 $$
b0 :
b0 %$
0H
b0 -"
b0 )"
b0 *"
b0 ."
b0 +"
b0 ,"
0("
b0 w
b0 x"
b100000000000 /$
b100000 v"
b100000000000 l#
1"
#10
0"
#15
b100000000000 /$
b100000 v"
b100000000000 l#
1"
#20
0"
#25
b100000000000 /$
b100000 v"
b100000000000 l#
1"
#30
0"
#35
b100000000000 /$
b100000 v"
b100000000000 l#
1"
#40
0"
#45
b100000000000 /$
b100000 v"
b100000000000 l#
1"
#50
0*
0"
#55
x("
1"
#60
0"
#65
b1000 ,
1"
#70
0"
#75
b101000000000000010010011 :$
b1100000000000 9$
b0 +
1"
#80
b11000000000 k#
b1100000000000 c#
b101000000000000010010011 b#
b101000000000000010010011 h#
1)
b101000000000000010010011 (
b101000000000000010010011 7
b101000000000000010010011 ^#
b1100000000000 '
b1100000000000 6
b1100000000000 ]#
0"
#85
1"
#90
b0 k#
b0 c#
b0 b#
b0 h#
b1010000000000000100010011 :$
b1100000000100 9$
b1 +
0)
0"
#95
1"
#100
b11000000001 k#
b1100000000100 c#
b1010000000000000100010011 b#
b1010000000000000100010011 h#
1)
b1010000000000000100010011 (
b1010000000000000100010011 7
b1010000000000000100010011 ^#
b1100000000100 '
b1100000000100 6
b1100000000100 ]#
0"
#105
1"
#110
b0 k#
b0 c#
b0 b#
b0 h#
b11111111101100000000000110010011 :$
b1100000001000 9$
b10 +
0)
0"
#115
1"
#120
b11000000010 k#
b1100000001000 c#
b11111111101100000000000110010011 b#
b11111111101100000000000110010011 h#
1)
b11111111101100000000000110010011 (
b11111111101100000000000110010011 7
b11111111101100000000000110010011 ^#
b1100000001000 '
b1100000001000 6
b1100000001000 ]#
0"
#125
1"
#130
b0 k#
b0 c#
b0 b#
b0 h#
b110010000000000001010010011 :$
b1100000001100 9$
b11 +
0)
0"
#135
1"
#140
b11000000011 k#
b1100000001100 c#
b110010000000000001010010011 b#
b110010000000000001010010011 h#
1)
b110010000000000001010010011 (
b110010000000000001010010011 7
b110010000000000001010010011 ^#
b1100000001100 '
b1100000001100 6
b1100000001100 ]#
0"
#145
1"
#150
b0 k#
b0 c#
b0 b#
b0 h#
b10011 :$
b1100000010000 9$
b100 +
0)
0"
#155
1"
#160
b11000000100 k#
b1100000010000 c#
b10011 b#
b10011 h#
1)
b10011 (
b10011 7
b10011 ^#
b1100000010000 '
b1100000010000 6
b1100000010000 ]#
0"
#165
1"
#170
b0 k#
b0 c#
b0 b#
b0 h#
b1100000010100 9$
b101 +
0)
0"
#175
1"
#180
b11000000101 k#
b1100000010100 c#
b10011 b#
b10011 h#
1)
b1100000010100 '
b1100000010100 6
b1100000010100 ]#
0"
#185
1"
#190
b0 k#
b0 c#
b0 b#
b0 h#
b1100000011000 9$
b110 +
0)
0"
#195
1"
#200
b11000000110 k#
b1100000011000 c#
b10011 b#
b10011 h#
1)
b1100000011000 '
b1100000011000 6
b1100000011000 ]#
0"
#205
1"
#210
b0 k#
b0 c#
b0 b#
b0 h#
b1100000011100 9$
b111 +
0)
0"
#215
1"
#220
b11000000111 k#
b1100000011100 c#
b10011 b#
b10011 h#
1)
b1100000011100 '
b1100000011100 6
b1100000011100 ]#
0"
#225
1"
#230
b0 k#
b0 c#
b0 b#
b0 h#
b1000 +
0)
0"
#235
1"
#240
xf
0?
0>
0m#
0$
1&
0"
#245
b0 I"
b0 @"
b0 D"
0z
b0 G"
b0 p
b0 %"
b0 Z"
0y
b0 E"
b0 F"
b0 H"
x?
x>
xm#
b101000000000000010010011 a#
b101000000000000010010011 i#
b11000000000 j#
bx `#
b0 M"
b0 ="
b0 >"
b0 ?"
b0 A"
b0 B"
b0 C"
b0 7"
b0 s"
b0 8"
b0 r"
0L"
0k
0m
0j
0_"
b0 i"
b0 o"
0`"
0W"
0c"
0j"
0V"
b0 ^"
b0 q
b0 &"
b0 Y"
b0 b"
b0 U"
b0 }
bx 1#
bx >#
bx V#
b0 B
b0 0"
b0 r#
b0 4"
b0 q"
b0 E
b0 /"
b0 p#
b0 5"
b0 p"
b0 6"
b0 3"
b0 J"
b0 K"
b0 ;"
b0 r
b0 '"
b0 X"
b0 i
b0 ""
b0 ["
0m"
xR
x;
bx 2#
bx U#
bx +#
bx T#
bx 3#
bx =#
bx X#
bx W#
bx S#
bx ,#
bx R#
b1100000000100 _#
b1100000000000 g#
b0 `
b0 !"
b0 <"
b0 d#
b0 S
b0 {
b0 :"
b0 f#
b100 U
b100 9"
b100 e#
bx c
bx \"
bx y"
bx V
bx d"
bx }"
bx @
bx '#
bx s#
bx A
bx l"
bx &#
bx C
bx %#
bx q#
bx D
bx k"
bx $#
bx T
bx e"
bx |"
x^
xt
x[
xJ
xl
x_
bx =
bx n"
bx (#
bx ]
bx a"
bx {"
bx Q#
xu
bx v
bx T"
bx w"
bx <#
bx s
bx *#
bx Z#
bx a
bx ]"
bx z"
bx O
bx "#
bx n#
bx K
bx h"
bx ##
bx P
bx g"
bx !#
bx Q
bx f"
bx ~"
1"
#250
b0 <$
b10100 ;$
0&
0"
#255
0f
0?
0>
0m#
b1100000000100 `#
0g
b0 V#
b0 W#
bx ,$
0R
0;
b0 1#
b0 >#
b0 2#
b0 X#
b0 U#
b0 +#
b0 T#
b0 3#
b0 =#
b0 S#
b0 ,#
b0 R#
0("
bx b
bx 5#
bx y#
bx ($
bx X
bx 7#
bx {#
bx <
bx ;#
bx ~#
xZ
xG
xI
bx M
bx }#
bx N
bx 8#
bx o#
bx |#
bx Y
bx 6#
bx z#
bx '$
b0 c
b0 \"
b0 y"
b100 V
b100 d"
b100 }"
b0 @
b0 '#
b0 s#
b0 A
b0 l"
b0 &#
b0 C
b0 %#
b0 q#
b0 D
b0 k"
b0 $#
b0 s
b0 *#
b0 Z#
b0 T
b0 e"
b0 |"
0^
0t
0[
0J
0l
0_
b0 =
b0 n"
b0 (#
b0 ]
b0 a"
b0 {"
b0 Q#
0u
b0 v
b0 T"
b0 w"
b0 <#
b0 a
b0 ]"
b0 z"
b0 O
b0 "#
b0 n#
b0 K
b0 h"
b0 ##
b0 P
b0 g"
b0 !#
b0 Q
b0 f"
b0 ~"
b1 <$
1"
#260
0"
#265
b100000000000 I"
b100000000000 @"
b100000000000 D"
b1010 ^"
b1010 G"
b101000000000000000000000 E"
b1 F"
b1010 H"
bx 9
bx 1"
bx t"
bx )#
b1010000000000000100010011 a#
b1010000000000000100010011 i#
b11000000001 j#
b1100000001000 `#
b101000000000000000000000 ="
b1 >"
b1010 ?"
b101000000000000000000000 A"
b1 B"
b1010 C"
b1 i"
1j"
1V"
b1010 B
b1010 0"
b1010 r#
b1010 4"
b1010 q"
b1 6"
b1010 3"
b10011 ;"
b1010 r
b1010 '"
b1010 X"
b0 ,$
b1100000001000 _#
b1100000000100 g#
b101000000000000010010011 `
b101000000000000010010011 !"
b101000000000000010010011 <"
b101000000000000010010011 d#
b1100000000000 S
b1100000000000 {
b1100000000000 :"
b1100000000000 f#
b1100000000100 U
b1100000000100 9"
b1100000000100 e#
b0 b
b0 5#
b0 y#
b0 ($
b100 X
b100 7#
b100 {#
b0 <
b0 ;#
b0 ~#
0Z
0G
0I
b0 M
b0 }#
b0 N
b0 8#
b0 o#
b0 |#
b0 Y
b0 6#
b0 z#
b0 '$
bx W
bx #$
bx L
bx 2"
bx u"
bx t#
bx $$
bx :
bx %$
xH
b10 <$
1"
#270
0"
