CORE_TB.vcd
$date
	Thu May 21 22:38:39 2026
$end
$version
	Icarus Verilog
$end
$timescale
	1s
$end
$scope module CORE_TB $end
$var wire 32 ! comm_data_out [31:0] $end
$var reg 1 " clk $end
$var reg 32 # comm_data_in [31:0] $end
$var reg 1 $ cpu_halt $end
$var reg 1 % interrupt $end
$var reg 1 & load_done $end
$var reg 32 ' loader_addr [31:0] $end
$var reg 32 ( loader_data [31:0] $end
$var reg 1 ) loader_we $end
$var reg 1 * reset $end
$var integer 32 + prog_i [31:0] $end
$var integer 32 , program_len [31:0] $end
$var integer 32 - test_fail [31:0] $end
$var integer 32 . test_num [31:0] $end
$var integer 32 / test_pass [31:0] $end
$scope function read_dcache $end
$var reg 32 0 word_idx [31:0] $end
$upscope $end
$scope function read_icache $end
$var reg 32 1 word_idx [31:0] $end
$upscope $end
$scope function read_reg $end
$var reg 5 2 idx [4:0] $end
$upscope $end
$scope module uut $end
$var wire 1 " clk $end
$var wire 32 3 comm_data_in [31:0] $end
$var wire 32 4 comm_data_out [31:0] $end
$var wire 1 $ cpu_halt $end
$var wire 32 5 csr_mepc [31:0] $end
$var wire 1 % interrupt $end
$var wire 1 & load_done $end
$var wire 32 6 loader_addr [31:0] $end
$var wire 32 7 loader_data [31:0] $end
$var wire 1 ) loader_we $end
$var wire 1 * reset $end
$var wire 32 8 wb_result_out [31:0] $end
$var wire 32 9 wb_out [31:0] $end
$var wire 2 : wb_control_out [1:0] $end
$var wire 1 ; wb_controlZ $end
$var wire 2 < wb_cntrlM [1:0] $end
$var wire 2 = wb_cntrl [1:0] $end
$var wire 1 > stallF $end
$var wire 1 ? stallD $end
$var wire 5 @ rs2_addr_outE [4:0] $end
$var wire 5 A rs2_addr_out [4:0] $end
$var wire 5 B rs2D_wire [4:0] $end
$var wire 5 C rs1_addr_outE [4:0] $end
$var wire 5 D rs1_addr_out [4:0] $end
$var wire 5 E rs1D_wire [4:0] $end
$var wire 32 F result_out [31:0] $end
$var wire 1 G reg_write_hazard $end
$var wire 1 H reg_write_en $end
$var wire 1 I reg_writeM $end
$var wire 1 J reg_writeD $end
$var wire 5 K rd_addr_d [4:0] $end
$var wire 5 L rdW [4:0] $end
$var wire 5 M rdM_hazard_out [4:0] $end
$var wire 5 N rdM [4:0] $end
$var wire 5 O rdE [4:0] $end
$var wire 32 P rd2 [31:0] $end
$var wire 32 Q rd1 [31:0] $end
$var wire 1 R pc_src $end
$var wire 32 S pc_out_fetch [31:0] $end
$var wire 32 T pc_out_decode [31:0] $end
$var wire 32 U pc_4_out_fetch [31:0] $end
$var wire 32 V pc_4_out_decode [31:0] $end
$var wire 32 W pc_4_outM [31:0] $end
$var wire 32 X pc_4_outE [31:0] $end
$var wire 32 Y mem_write_data [31:0] $end
$var wire 1 Z mem_writeM $end
$var wire 1 [ mem_writeD $end
$var wire 32 \ mem_result_out [31:0] $end
$var wire 3 ] mdu_control [2:0] $end
$var wire 1 ^ jump $end
$var wire 1 _ isa_slct $end
$var wire 32 ` instruction_out [31:0] $end
$var wire 32 a imm [31:0] $end
$var wire 3 b funct3_out_execute [2:0] $end
$var wire 3 c funct3_out_decode [2:0] $end
$var wire 2 d forwardB [1:0] $end
$var wire 2 e forwardA [1:0] $end
$var wire 1 f flushE $end
$var wire 1 g flushD $end
$var wire 32 h execute_result_out [31:0] $end
$var wire 8 i exception_type [7:0] $end
$var wire 1 j exception $end
$var wire 1 k csr_wr $end
$var wire 1 l csr_rd $end
$var wire 32 m csr_mtvec [31:0] $end
$var wire 32 n csr_data_out [31:0] $end
$var wire 32 o csr_data [31:0] $end
$var wire 2 p csr_control [1:0] $end
$var wire 12 q csr_addr [11:0] $end
$var wire 32 r branch_target [31:0] $end
$var wire 1 s branch $end
$var wire 1 t alu_imm_en $end
$var wire 4 u alu_control [3:0] $end
$scope module CSR $end
$var wire 1 " clk $end
$var wire 32 v csr_mepc [31:0] $end
$var wire 1 w effective_exception $end
$var wire 1 x exception_edge $end
$var wire 1 % interrupt $end
$var wire 1 * reset $end
$var wire 32 y pc [31:0] $end
$var wire 32 z mtval_tmp [31:0] $end
$var wire 32 { mcause_tmp [31:0] $end
$var wire 1 | interrupt_allowed $end
$var wire 32 } instr [31:0] $end
$var wire 8 ~ exception_code [7:0] $end
$var wire 1 j exception $end
$var wire 1 k csr_wr $end
$var wire 1 l csr_rd $end
$var wire 32 !" csr_mtvec [31:0] $end
$var wire 32 "" csr_data_out [31:0] $end
$var wire 32 #" csr_data_in [31:0] $end
$var wire 2 $" csr_cntrl [1:0] $end
$var wire 12 %" csr_addr [11:0] $end
$var reg 1 &" exception_prev $end
$var reg 32 '" mcause [31:0] $end
$var reg 32 (" mepc [31:0] $end
$var reg 32 )" mie [31:0] $end
$var reg 32 *" mstatus [31:0] $end
$var reg 32 +" mtval [31:0] $end
$var reg 32 ," mtvec [31:0] $end
$upscope $end
$scope module DECODE $end
$var wire 1 " clk $end
$var wire 1 * reset $end
$var wire 5 -" rs1D [4:0] $end
$var wire 5 ." rs2D [4:0] $end
$var wire 32 /" wd [31:0] $end
$var wire 1 H we $end
$var wire 5 0" w_addr [4:0] $end
$var wire 5 1" shamt [4:0] $end
$var wire 5 2" rs2_addr [4:0] $end
$var wire 5 3" rs1_addr [4:0] $end
$var wire 5 4" rd_addr [4:0] $end
$var wire 32 5" rd2_wire [31:0] $end
$var wire 32 6" rd1_wire [31:0] $end
$var wire 32 7" pc_4 [31:0] $end
$var wire 32 8" pc [31:0] $end
$var wire 7 9" opcode [6:0] $end
$var wire 32 :" instruction [31:0] $end
$var wire 32 ;" immu_u [31:0] $end
$var wire 32 <" immu_s [31:0] $end
$var wire 32 =" immu_i [31:0] $end
$var wire 32 >" immu_b [31:0] $end
$var wire 32 ?" imms_u [31:0] $end
$var wire 32 @" imms_s [31:0] $end
$var wire 32 A" imms_i [31:0] $end
$var wire 32 B" imms_b [31:0] $end
$var wire 32 C" imm_u [31:0] $end
$var wire 32 D" imm_s [31:0] $end
$var wire 32 E" imm_j [31:0] $end
$var wire 32 F" imm_i [31:0] $end
$var wire 32 G" imm_b [31:0] $end
$var wire 7 H" funct7 [6:0] $end
$var wire 3 I" funct3 [2:0] $end
$var wire 1 f flushE $end
$var wire 1 J" csr_imm_en $end
$var wire 32 K" csr_imm [31:0] $end
$var reg 4 L" alu_control [3:0] $end
$var reg 4 M" alu_control_reg [3:0] $end
$var reg 1 t alu_imm_en $end
$var reg 1 N" alu_imm_en_reg $end
$var reg 1 s branch $end
$var reg 1 O" branch_reg $end
$var reg 12 P" csr_addr [11:0] $end
$var reg 2 Q" csr_control [1:0] $end
$var reg 32 R" csr_data [31:0] $end
$var reg 1 l csr_rd $end
$var reg 1 k csr_wr $end
$var reg 1 j exception $end
$var reg 8 S" exception_type [7:0] $end
$var reg 3 T" funct3_out [2:0] $end
$var reg 32 U" imm [31:0] $end
$var reg 32 V" imm_reg [31:0] $end
$var reg 1 _ isa_slct $end
$var reg 1 W" isa_slct_reg $end
$var reg 1 ^ jump $end
$var reg 1 X" jump_reg $end
$var reg 3 Y" mdu_control [2:0] $end
$var reg 3 Z" mdu_control_reg [2:0] $end
$var reg 1 [ mem_write $end
$var reg 1 [" mem_write_reg $end
$var reg 32 \" pc_4_out [31:0] $end
$var reg 32 ]" pc_out [31:0] $end
$var reg 32 ^" rd1 [31:0] $end
$var reg 32 _" rd2 [31:0] $end
$var reg 5 `" rd_addr_d [4:0] $end
$var reg 5 a" rd_addr_d_reg [4:0] $end
$var reg 1 J reg_write $end
$var reg 1 b" reg_write_reg $end
$var reg 5 c" rs1_addr_out [4:0] $end
$var reg 5 d" rs2_addr_out [4:0] $end
$var reg 1 e" un_sign $end
$var reg 2 f" wb_cntrl [1:0] $end
$var reg 2 g" wb_cntrl_reg [1:0] $end
$scope module REG_FILE $end
$var wire 5 h" A1 [4:0] $end
$var wire 5 i" A2 [4:0] $end
$var wire 32 j" RD1 [31:0] $end
$var wire 32 k" RD2 [31:0] $end
$var wire 32 l" WD [31:0] $end
$var wire 1 " clk $end
$var wire 1 * res $end
$var wire 1 H we $end
$var wire 5 m" A3 [4:0] $end
$scope begin $ivl_for_loop0 $end
$var integer 32 n" i [31:0] $end
$upscope $end
$upscope $end
$upscope $end
$scope module EXECUTE $end
$var wire 4 o" alu_control [3:0] $end
$var wire 1 t alu_imm_en $end
$var wire 1 s branch $end
$var wire 1 " clk $end
$var wire 32 p" csr_data_in [31:0] $end
$var wire 3 q" funct3_in [2:0] $end
$var wire 32 r" imm [31:0] $end
$var wire 1 _ isa_slct $end
$var wire 1 ^ jump $end
$var wire 3 s" mdu_control [2:0] $end
$var wire 1 [ mem_writeD $end
$var wire 32 t" pc [31:0] $end
$var wire 32 u" pc_4 [31:0] $end
$var wire 1 R pc_src $end
$var wire 32 v" rd1 [31:0] $end
$var wire 32 w" rd2 [31:0] $end
$var wire 5 x" rdE [4:0] $end
$var wire 5 y" rd_addr_d [4:0] $end
$var wire 1 J reg_writeD $end
$var wire 1 * reset $end
$var wire 5 z" rs1_addr_in [4:0] $end
$var wire 5 {" rs1_addr_outE [4:0] $end
$var wire 5 |" rs2_addr_in [4:0] $end
$var wire 5 }" rs2_addr_outE [4:0] $end
$var wire 2 ~" wb_controlD [1:0] $end
$var wire 32 !# wb_result_in [31:0] $end
$var wire 1 ; wb_contorlZ $end
$var wire 32 "# pc_target_out [31:0] $end
$var wire 32 ## mdu_src_B [31:0] $end
$var wire 32 $# mdu_src_A [31:0] $end
$var wire 32 %# mdu_result_out [31:0] $end
$var wire 2 &# forwardB [1:0] $end
$var wire 2 '# forwardA [1:0] $end
$var wire 32 (# exe_result_in [31:0] $end
$var wire 32 )# alu_src_B_imm [31:0] $end
$var wire 32 *# alu_src_B [31:0] $end
$var wire 32 +# alu_src_A [31:0] $end
$var wire 32 ,# alu_result_out [31:0] $end
$var reg 3 -# funct3_out [2:0] $end
$var reg 1 Z mem_writeM $end
$var reg 32 .# mem_write_data [31:0] $end
$var reg 32 /# pc_4_out [31:0] $end
$var reg 5 0# rdM [4:0] $end
$var reg 1 I reg_writeM $end
$var reg 32 1# result_out [31:0] $end
$var reg 32 2# result_out_reg [31:0] $end
$var reg 2 3# wb_controlM [1:0] $end
$scope module alu $end
$var wire 4 4# ALU_CNTR [3:0] $end
$var wire 32 5# s1 [31:0] $end
$var wire 32 6# s2 [31:0] $end
$var reg 32 7# ALU_OUT [31:0] $end
$upscope $end
$scope module mdu $end
$var wire 32 8# d3 [31:0] $end
$var wire 3 9# funct3 [2:0] $end
$var wire 32 :# s1 [31:0] $end
$var wire 32 ;# s1_signed [31:0] $end
$var wire 32 <# s2 [31:0] $end
$var wire 32 =# s2_signed [31:0] $end
$var wire 64 ># mulhu_result [63:0] $end
$var wire 64 ?# mulhsu_result [63:0] $end
$var wire 64 @# mul_result [63:0] $end
$var reg 32 A# d3_reg [31:0] $end
$upscope $end
$upscope $end
$scope module FETCH $end
$var wire 32 B# branch_target [31:0] $end
$var wire 32 C# cache_input [31:0] $end
$var wire 1 D# cache_we $end
$var wire 1 " clk $end
$var wire 1 $ cpu_halt $end
$var wire 1 j exception $end
$var wire 32 E# exception_handler_address [31:0] $end
$var wire 1 & load_done $end
$var wire 32 F# loader_addr [31:0] $end
$var wire 32 G# loader_data [31:0] $end
$var wire 1 ) loader_we $end
$var wire 1 R pc_src $end
$var wire 1 * reset $end
$var wire 1 > stallF $end
$var wire 1 ? stallD $end
$var wire 32 H# pc_4_out_reg [31:0] $end
$var wire 32 I# pc [31:0] $end
$var wire 32 J# instruction_out_reg [31:0] $end
$var wire 1 g flushD $end
$var wire 32 K# cache_w_data [31:0] $end
$var wire 32 L# cache_w_addr [31:0] $end
$var reg 32 M# instruction_out [31:0] $end
$var reg 32 N# pc_4_out [31:0] $end
$var reg 32 O# pc_out [31:0] $end
$var reg 32 P# pc_out_reg [31:0] $end
$scope module I_CACHE $end
$var wire 1 " clk $end
$var wire 32 Q# inst_in [31:0] $end
$var wire 32 R# inst_out [31:0] $end
$var wire 32 S# r_addr [31:0] $end
$var wire 1 * reset $end
$var wire 32 T# w_addr [31:0] $end
$var wire 1 D# we $end
$scope begin $ivl_for_loop2 $end
$var integer 32 U# i [31:0] $end
$upscope $end
$upscope $end
$upscope $end
$scope module HAZARD_UNIT $end
$var wire 1 $ cpu_halt $end
$var wire 1 g flushD $end
$var wire 1 f flushE $end
$var wire 1 V# lwstall $end
$var wire 1 R pc_src $end
$var wire 5 W# rdE [4:0] $end
$var wire 5 X# rdM [4:0] $end
$var wire 1 I reg_writeM $end
$var wire 1 ; result_srcE_zer $end
$var wire 5 Y# rs1D [4:0] $end
$var wire 5 Z# rs1E [4:0] $end
$var wire 5 [# rs2D [4:0] $end
$var wire 5 \# rs2E [4:0] $end
$var wire 1 ? stallD $end
$var wire 1 > stallF $end
$var wire 1 H reg_writeW $end
$var wire 5 ]# rdW [4:0] $end
$var reg 2 ^# forwardA [1:0] $end
$var reg 2 _# forwardB [1:0] $end
$upscope $end
$scope module MEM $end
$var wire 1 " clk $end
$var wire 32 `# execute_result_in [31:0] $end
$var wire 32 a# execute_result_out [31:0] $end
$var wire 3 b# funct3_in [2:0] $end
$var wire 1 Z mem_write $end
$var wire 32 c# mem_write_data [31:0] $end
$var wire 32 d# pc_4 [31:0] $end
$var wire 5 e# rdM [4:0] $end
$var wire 5 f# rdM_hazard_out [4:0] $end
$var wire 1 I reg_write $end
$var wire 1 G reg_write_hazard $end
$var wire 1 * reset $end
$var wire 2 g# wb_controlM [1:0] $end
$var wire 32 h# mem_result_out_temp [31:0] $end
$var reg 32 i# mem_result_out [31:0] $end
$var reg 32 j# pc_4_out [31:0] $end
$var reg 5 k# rdW [4:0] $end
$var reg 1 H reg_write_en $end
$var reg 2 l# wb_control_out [1:0] $end
$var reg 32 m# wb_result_out [31:0] $end
$scope module D_CACHE $end
$var wire 1 " clk $end
$var wire 32 n# data_in [31:0] $end
$var wire 3 o# funct3 [2:0] $end
$var wire 32 p# r_addr [31:0] $end
$var wire 1 * reset $end
$var wire 32 q# w_addr [31:0] $end
$var wire 1 Z we $end
$var reg 32 r# data_out [31:0] $end
$var reg 32 s# merged_data [31:0] $end
$var reg 8 t# selected_byte [7:0] $end
$var reg 16 u# selected_half [15:0] $end
$scope begin $ivl_for_loop1 $end
$var integer 32 v# i [31:0] $end
$upscope $end
$upscope $end
$upscope $end
$upscope $end
$scope task check_dcache $end
$var reg 32 w# actual [31:0] $end
$var reg 32 x# expected [31:0] $end
$var reg 256 y# test_name [255:0] $end
$var reg 32 z# word_addr [31:0] $end
$upscope $end
$scope task check_reg $end
$var reg 32 {# actual [31:0] $end
$var reg 32 |# expected [31:0] $end
$var reg 5 }# reg_idx [4:0] $end
$var reg 256 ~# test_name [255:0] $end
$upscope $end
$scope task do_reset $end
$upscope $end
$scope task dump_regs $end
$var integer 32 !$ ri [31:0] $end
$upscope $end
$scope task halt_cpu $end
$upscope $end
$scope task load_instruction $end
$var reg 32 "$ addr [31:0] $end
$var reg 32 #$ instr [31:0] $end
$upscope $end
$scope task load_program $end
$upscope $end
$scope task wait_cycles $end
$var integer 32 $$ n [31:0] $end
$var integer 32 %$ wc [31:0] $end
$upscope $end
$upscope $end
$enddefinitions $end
#0
$dumpvars
bx %$
bx $$
bx #$
bx "$
bx !$
bx ~#
bx }#
bx |#
bx {#
bx z#
bx y#
bx x#
bx w#
bx v#
bx u#
bx t#
bx s#
bx r#
bx q#
bx p#
bx o#
bx n#
bx m#
bx l#
bx k#
bx j#
bx i#
bx h#
bx g#
bx f#
bx e#
bx d#
bx c#
bx b#
bx a#
bx `#
bx _#
bx ^#
bx ]#
bx \#
bx [#
bx Z#
bx Y#
bx X#
bx W#
1V#
bx U#
b0xxxxxxxxxxxxxxxxxxxxxxxxxxxxxx T#
b0xxxxxxxxxxxxxxxxxxxxxxxxxxxxxx S#
bx R#
b0 Q#
bx P#
bx O#
bx N#
bx M#
bx00 L#
b0 K#
bx J#
bx I#
bx H#
b0 G#
b0 F#
bx00 E#
xD#
b0 C#
bx B#
bx A#
bx @#
bx ?#
bx >#
bx =#
bx <#
bx ;#
bx :#
bx 9#
bx 8#
bx 7#
bx 6#
bx 5#
bx 4#
bx 3#
bx 2#
bx 1#
bx 0#
bx /#
bx .#
bx -#
bx ,#
bx +#
bx *#
bx )#
bx (#
bx '#
bx &#
bx %#
bx $#
bx ##
bx "#
bx !#
bx ~"
bx }"
bx |"
bx {"
bx z"
bx y"
bx x"
bx w"
bx v"
bx u"
bx t"
bx s"
bx r"
bx q"
bx p"
bx o"
bx n"
bx m"
bx l"
bx k"
bx j"
bx i"
bx h"
bx g"
bx f"
xe"
bx d"
bx c"
xb"
bx a"
bx `"
bx _"
bx ^"
bx ]"
bx \"
x["
bx Z"
bx Y"
xX"
xW"
bx V"
bx U"
bx T"
b0x S"
bx R"
bx Q"
bx P"
xO"
xN"
bx M"
bx L"
b0xxxxx K"
xJ"
bx I"
bx H"
b0xxxxxxxxxxxxxxxxxxxxxxxxxxxxxx0 G"
bx F"
bx0 E"
bx D"
bx000000000000 C"
b0xxxxxxxxxxxxxxxxxxxxxxxxxxxxxx0 B"
bx A"
bx @"
bx000000000000 ?"
b0xxxxxxxxxxx0 >"
b0xxxxxxxxxxxx ="
b0xxxxxxxxxxxx <"
bx000000000000 ;"
bx :"
bx 9"
bx 8"
bx 7"
bx 6"
bx 5"
bx 4"
bx 3"
bx 2"
bx 1"
bx 0"
bx /"
bx ."
bx -"
bx ,"
bx +"
bx *"
bx )"
bx ("
bx '"
x&"
bx %"
bx $"
bx #"
bx ""
bx00 !"
b0x ~
bx }
1|
b0x {
b0 z
bx y
xx
xw
bz v
bx u
xt
xs
bx r
bx q
bx p
bx o
bx n
bx00 m
xl
xk
xj
b0x i
bx h
xg
1f
bx e
bx d
bx c
bx b
bx a
bx `
x_
x^
bx ]
bx \
x[
xZ
bx Y
bx X
bx W
bx V
bx U
bx T
bx S
xR
bx Q
bx P
bx O
bx N
bx M
bx L
bx K
xJ
xI
xH
xG
bx F
bx E
bx D
bx C
bx B
bx A
bx @
1?
1>
bx =
bx <
x;
bx :
bx 9
bx 8
b0 7
b0 6
bz 5
bz 4
b0 3
bx 2
bx 1
bx 0
b0 /
b0 .
b0 -
b0 ,
bx +
1*
0)
b0 (
b0 '
0&
0%
1$
b0 #
0"
bz !
$end
#5
b0 n
b0 ""
b0 p"
b0 T#
b0 L#
b0x00 I#
b0 J#
b0 R#
b0 S#
0g
0R
b0 2#
0;
b0 %#
b0 8#
b0 A#
b0 ,#
b0 7#
b0 )#
b0 6#
b0 *#
b0 @#
b0 =#
b0 >#
b0 ?#
b0 ##
b0 <#
b0xxxxx o
b0xxxxx #"
b0xxxxx R"
b0 +#
b0 5#
b0 ;#
b0 $#
b0 :#
b0 h#
b0 r#
b0 u#
b0 t#
b0 s#
b0 9
b0 /"
b0 l"
b0 !#
b0 d
b0 &#
b0 _#
b0 e
b0 '#
b0 ^#
b0 m
b0 !"
b0 E#
b100 H#
b0 P#
b0 c
b0 T"
b0 q"
b0 V
b0 \"
b0 u"
b0 @
b0 }"
b0 \#
b0 A
b0 d"
b0 |"
b0 C
b0 {"
b0 Z#
b0 D
b0 c"
b0 z"
b0 r
b0 "#
b0 B#
b0 T
b0 y
b0 ]"
b0 t"
0^
0s
0[
0J
0_
b0 =
b0 f"
b0 ~"
b0 ]
b0 Y"
b0 s"
b0 9#
0t
b0 u
b0 L"
b0 o"
b0 4#
b0 a
b0 U"
b0 r"
b0 O
b0 x"
b0 W#
b0 K
b0 `"
b0 y"
b0 P
b0 _"
b0 w"
b0 Q
b0 ^"
b0 v"
b0 b
b0 -#
b0 b#
b0 o#
b0 X
b0 /#
b0 d#
b0 <
b0 3#
b0 g#
0Z
0G
0I
b0 M
b0 f#
b0 N
b0 0#
b0 X#
b0 e#
b0 Y
b0 .#
b0 c#
b0 n#
b0 h
b0 (#
b0 a#
b0 F
b0 1#
b0 `#
b0 p#
b0 q#
b0 W
b0 j#
b0 8
b0 m#
b0 \
b0 i#
b0 L
b0 0"
b0 m"
b0 ]#
b0 k#
b0 :
b0 l#
0H
b0 +"
b0 '"
b0 ("
b0 ,"
b0 )"
b0 *"
0&"
b100000000000 v#
b100000 n"
b100000000000 U#
1"
#10
0"
#15
b100000000000 v#
b100000 n"
b100000000000 U#
1"
#20
0"
#25
b100000000000 v#
b100000 n"
b100000000000 U#
1"
#30
0"
#35
b100000000000 v#
b100000 n"
b100000000000 U#
1"
#40
0"
#45
b100000000000 v#
b100000 n"
b100000000000 U#
1"
#50
0*
0"
#55
x&"
1"
#60
0"
#65
b1000 ,
1"
#70
0"
#75
b101000000000000010010011 #$
b1100000000000 "$
b0 +
1"
#80
b11000000000 T#
1D#
b1100000000000 L#
b101000000000000010010011 K#
b101000000000000010010011 Q#
1)
b101000000000000010010011 (
b101000000000000010010011 7
b101000000000000010010011 G#
b1100000000000 '
b1100000000000 6
b1100000000000 F#
0"
#85
1"
#90
b0 T#
xD#
b0 L#
b0 K#
b0 Q#
b1010000000000000100010011 #$
b1100000000100 "$
b1 +
0)
0"
#95
1"
#100
b11000000001 T#
1D#
b1100000000100 L#
b1010000000000000100010011 K#
b1010000000000000100010011 Q#
1)
b1010000000000000100010011 (
b1010000000000000100010011 7
b1010000000000000100010011 G#
b1100000000100 '
b1100000000100 6
b1100000000100 F#
0"
#105
1"
#110
b0 T#
xD#
b0 L#
b0 K#
b0 Q#
b11111111101100000000000110010011 #$
b1100000001000 "$
b10 +
0)
0"
#115
1"
#120
b11000000010 T#
1D#
b1100000001000 L#
b11111111101100000000000110010011 K#
b11111111101100000000000110010011 Q#
1)
b11111111101100000000000110010011 (
b11111111101100000000000110010011 7
b11111111101100000000000110010011 G#
b1100000001000 '
b1100000001000 6
b1100000001000 F#
0"
#125
1"
#130
b0 T#
xD#
b0 L#
b0 K#
b0 Q#
b110010000000000001010010011 #$
b1100000001100 "$
b11 +
0)
0"
#135
1"
#140
b11000000011 T#
1D#
b1100000001100 L#
b110010000000000001010010011 K#
b110010000000000001010010011 Q#
1)
b110010000000000001010010011 (
b110010000000000001010010011 7
b110010000000000001010010011 G#
b1100000001100 '
b1100000001100 6
b1100000001100 F#
0"
#145
1"
#150
b0 T#
xD#
b0 L#
b0 K#
b0 Q#
b10011 #$
b1100000010000 "$
b100 +
0)
0"
#155
1"
#160
b11000000100 T#
1D#
b1100000010000 L#
b10011 K#
b10011 Q#
1)
b10011 (
b10011 7
b10011 G#
b1100000010000 '
b1100000010000 6
b1100000010000 F#
0"
#165
1"
#170
b0 T#
xD#
b0 L#
b0 K#
b0 Q#
b1100000010100 "$
b101 +
0)
0"
#175
1"
#180
b11000000101 T#
1D#
b1100000010100 L#
b10011 K#
b10011 Q#
1)
b1100000010100 '
b1100000010100 6
b1100000010100 F#
0"
#185
1"
#190
b0 T#
xD#
b0 L#
b0 K#
b0 Q#
b1100000011000 "$
b110 +
0)
0"
#195
1"
#200
b11000000110 T#
1D#
b1100000011000 L#
b10011 K#
b10011 Q#
1)
b1100000011000 '
b1100000011000 6
b1100000011000 F#
0"
#205
1"
#210
b0 T#
xD#
b0 L#
b0 K#
b0 Q#
b1100000011100 "$
b111 +
0)
0"
#215
1"
#220
b11000000111 T#
1D#
b1100000011100 L#
b10011 K#
b10011 Q#
1)
b1100000011100 '
b1100000011100 6
b1100000011100 F#
0"
#225
1"
#230
b0 T#
xD#
b0 L#
b0 K#
b0 Q#
b1000 +
0)
0"
#235
1"
#240
0f
0?
0>
0V#
0$
1&
0"
#245
0x
0D#
0w
x?
x>
xV#
bx I#
b0 C"
b0 G"
b0 D"
b0 F"
0J"
0k
0l
0j
0W"
b0 a"
b0 g"
0X"
0O"
0["
0b"
0N"
b0 V"
b0 p
b0 $"
b0 Q"
b0 Z"
b0 M"
xf
bx )#
bx 6#
b101000000000000010010011 J#
b101000000000000010010011 R#
b11000000000 S#
b0 K"
b0 E"
b0 ;"
b0 >"
b0 <"
b0 ="
b0 ?"
b0 B"
b0 @"
b0 A"
b0 5"
b0 k"
b0 B
b0 ."
b0 [#
b0 2"
b0 i"
b0 6"
b0 j"
b0 E
b0 -"
b0 Y#
b0 3"
b0 h"
b0 4"
b0 1"
b0 H"
b0 I"
b0 9"
0e"
xg
xR
x;
bx *#
bx =#
bx ##
bx <#
b0 q
b0 %"
b0 P"
bx o
bx #"
bx R"
b0 {
b0 i
b0 ~
b0 S"
bx +#
bx 5#
bx @#
bx ?#
bx ;#
bx >#
bx $#
bx :#
b1100000000100 H#
b1100000000000 P#
b0 `
b0 }
b0 :"
b0 M#
b0 S
b0 8"
b0 O#
b100 U
b100 7"
b100 N#
bx c
bx T"
bx q"
bx V
bx \"
bx u"
bx @
bx }"
bx \#
bx A
bx d"
bx |"
bx C
bx {"
bx Z#
bx D
bx c"
bx z"
bx T
bx y
bx ]"
bx t"
x^
xs
x[
xJ
x_
bx =
bx f"
bx ~"
bx ]
bx Y"
bx s"
bx 9#
xt
bx u
bx L"
bx o"
bx 4#
bx r
bx "#
bx B#
bx a
bx U"
bx r"
bx O
bx x"
bx W#
bx K
bx `"
bx y"
bx P
bx _"
bx w"
bx Q
bx ^"
bx v"
1"
#250
b0 %$
b10100 $$
0&
0"
#255
0f
0?
0>
0V#
b1100000000100 I#
bx s#
0g
0R
0;
b0 )#
b0 6#
b0 *#
b0 @#
b0 =#
b0 >#
b0 ?#
b0 ##
b0 <#
b0 o
b0 #"
b0 R"
b0 +#
b0 5#
b0 ;#
b0 $#
b0 :#
0&"
bx b
bx -#
bx b#
bx o#
bx X
bx /#
bx d#
bx <
bx 3#
bx g#
xZ
xG
xI
bx M
bx f#
bx N
bx 0#
bx X#
bx e#
bx Y
bx .#
bx c#
bx n#
b0 c
b0 T"
b0 q"
b100 V
b100 \"
b100 u"
b0 @
b0 }"
b0 \#
b0 A
b0 d"
b0 |"
b0 C
b0 {"
b0 Z#
b0 D
b0 c"
b0 z"
b0 r
b0 "#
b0 B#
b0 T
b0 y
b0 ]"
b0 t"
0^
0s
0[
0J
0_
b0 =
b0 f"
b0 ~"
b0 ]
b0 Y"
b0 s"
b0 9#
0t
b0 u
b0 L"
b0 o"
b0 4#
b0 a
b0 U"
b0 r"
b0 O
b0 x"
b0 W#
b0 K
b0 `"
b0 y"
b0 P
b0 _"
b0 w"
b0 Q
b0 ^"
b0 v"
b1 %$
1"
#260
0"
#265
b1010 V"
bx 9
bx /"
bx l"
bx !#
b1100000001000 I#
b101000000000000000000000 C"
b100000000000 G"
b1 D"
b1010 F"
b1 a"
1b"
1N"
b1010000000000000100010011 J#
b1010000000000000100010011 R#
b11000000001 S#
b1010 E"
b101000000000000000000000 ;"
b100000000000 >"
b1 <"
b1010 ="
b101000000000000000000000 ?"
b100000000000 B"
b1 @"
b1010 A"
b1010 B
b1010 ."
b1010 [#
b1010 2"
b1010 i"
b1 4"
b1010 1"
b10011 9"
b1010 q
b1010 %"
b1010 P"
b0 s#
b1100000001000 H#
b1100000000100 P#
b101000000000000010010011 `
b101000000000000010010011 }
b101000000000000010010011 :"
b101000000000000010010011 M#
b1100000000000 S
b1100000000000 8"
b1100000000000 O#
b1100000000100 U
b1100000000100 7"
b1100000000100 N#
b0 b
b0 -#
b0 b#
b0 o#
b100 X
b100 /#
b100 d#
b0 <
b0 3#
b0 g#
0Z
0G
0I
b0 M
b0 f#
b0 N
b0 0#
b0 X#
b0 e#
b0 Y
b0 .#
b0 c#
b0 n#
bx W
bx j#
bx L
bx 0"
bx m"
bx ]#
bx k#
bx :
bx l#
xH
b10 %$
1"
#270
0"
#275
b1010 2#
b1010 ,#
b1010 7#
b10100 V"
b1010 )#
b1010 6#
b1010000000000000000000000 C"
b10 G"
b10 D"
b10100 F"
b10 a"
b1100000001100 I#
b0 9
b0 /"
b0 l"
b0 !#
b10100 E"
b1010000000000000000000000 ;"
b10 >"
b10 <"
b10100 ="
b1010000000000000000000000 ?"
b10 B"
b10 @"
b10100 A"
b10100 B
b10100 ."
b10100 [#
b10100 2"
b10100 i"
b10 4"
b10100 1"
b10100 q
b10100 %"
b10100 P"
b11111111101100000000000110010011 J#
b11111111101100000000000110010011 R#
b11000000010 S#
b100 W
b100 j#
b0 L
b0 0"
b0 m"
b0 ]#
b0 k#
b0 :
b0 l#
0H
b1100000000100 V
b1100000000100 \"
b1100000000100 u"
b1010 @
b1010 }"
b1010 \#
b1010 A
b1010 d"
b1010 |"
b1100000000000 T
b1100000000000 y
b1100000000000 ]"
b1100000000000 t"
1J
1t
b1100000001010 r
b1100000001010 "#
b1100000001010 B#
b1010 a
b1010 U"
b1010 r"
b1 O
b1 x"
b1 W#
b1 K
b1 `"
b1 y"
b1010000000000000100010011 `
b1010000000000000100010011 }
b1010000000000000100010011 :"
b1010000000000000100010011 M#
b1100000000100 S
b1100000000100 8"
b1100000000100 O#
b1100000001000 U
b1100000001000 7"
b1100000001000 N#
b1100000001100 H#
b1100000001000 P#
b11 %$
1"
#280
0"
