CPU/TEST_BENCH/CORE_TB.vcd
$date
	Thu May 21 21:24:12 2026
$end
$version
	Icarus Verilog
$end
$timescale
	1s
$end
$scope module CORE_TB $end
$var wire 32 ! comm_data_out [31:0] $end
$var reg 1 " clk $end
$var reg 32 # comm_data_in [31:0] $end
$var reg 1 $ cpu_halt $end
$var reg 1 % interrupt $end
$var reg 1 & load_done $end
$var reg 32 ' loader_addr [31:0] $end
$var reg 32 ( loader_data [31:0] $end
$var reg 1 ) loader_we $end
$var reg 1 * reset $end
$var integer 32 + prog_i [31:0] $end
$var integer 32 , program_len [31:0] $end
$var integer 32 - test_fail [31:0] $end
$var integer 32 . test_num [31:0] $end
$var integer 32 / test_pass [31:0] $end
$scope function read_dcache $end
$var reg 32 0 word_idx [31:0] $end
$upscope $end
$scope function read_icache $end
$var reg 32 1 word_idx [31:0] $end
$upscope $end
$scope function read_reg $end
$var reg 5 2 idx [4:0] $end
$upscope $end
$scope module uut $end
$var wire 1 " clk $end
$var wire 32 3 comm_data_in [31:0] $end
$var wire 32 4 comm_data_out [31:0] $end
$var wire 1 $ cpu_halt $end
$var wire 32 5 csr_mepc [31:0] $end
$var wire 1 % interrupt $end
$var wire 1 & load_done $end
$var wire 32 6 loader_addr [31:0] $end
$var wire 32 7 loader_data [31:0] $end
$var wire 1 ) loader_we $end
$var wire 1 * reset $end
$var wire 32 8 wb_result_out [31:0] $end
$var wire 32 9 wb_out [31:0] $end
$var wire 2 : wb_control_out [1:0] $end
$var wire 1 ; wb_controlZ $end
$var wire 2 < wb_cntrlM [1:0] $end
$var wire 2 = wb_cntrl [1:0] $end
$var wire 1 > stallF $end
$var wire 1 ? stallD $end
$var wire 5 @ rs2_addr_outE [4:0] $end
$var wire 5 A rs2_addr_out [4:0] $end
$var wire 5 B rs1_addr_outE [4:0] $end
$var wire 5 C rs1_addr_out [4:0] $end
$var wire 32 D result_out [31:0] $end
$var wire 1 E reg_write_hazard $end
$var wire 1 F reg_write_en $end
$var wire 1 G reg_writeM $end
$var wire 1 H reg_writeD $end
$var wire 5 I rd_addr_d [4:0] $end
$var wire 5 J rdW [4:0] $end
$var wire 5 K rdM_hazard_out [4:0] $end
$var wire 5 L rdM [4:0] $end
$var wire 5 M rdE [4:0] $end
$var wire 32 N rd2 [31:0] $end
$var wire 32 O rd1 [31:0] $end
$var wire 1 P pc_src $end
$var wire 32 Q pc_out_fetch [31:0] $end
$var wire 32 R pc_out_decode [31:0] $end
$var wire 32 S pc_4_out_fetch [31:0] $end
$var wire 32 T pc_4_out_decode [31:0] $end
$var wire 32 U pc_4_outM [31:0] $end
$var wire 32 V pc_4_outE [31:0] $end
$var wire 32 W mem_write_data [31:0] $end
$var wire 1 X mem_writeM $end
$var wire 1 Y mem_writeD $end
$var wire 32 Z mem_result_out [31:0] $end
$var wire 3 [ mdu_control [2:0] $end
$var wire 1 \ jump $end
$var wire 1 ] isa_slct $end
$var wire 32 ^ instruction_out [31:0] $end
$var wire 32 _ imm [31:0] $end
$var wire 3 ` funct3_out_execute [2:0] $end
$var wire 3 a funct3_out_decode [2:0] $end
$var wire 2 b forwardB [1:0] $end
$var wire 2 c forwardA [1:0] $end
$var wire 1 d flushE $end
$var wire 1 e flushD $end
$var wire 32 f execute_result_out [31:0] $end
$var wire 1 g exception_type $end
$var wire 1 h exception $end
$var wire 1 i csr_wr $end
$var wire 1 j csr_rd $end
$var wire 32 k csr_mtvec [31:0] $end
$var wire 32 l csr_data_out [31:0] $end
$var wire 32 m csr_data [31:0] $end
$var wire 2 n csr_control [1:0] $end
$var wire 12 o csr_addr [11:0] $end
$var wire 32 p branch_target [31:0] $end
$var wire 1 q branch $end
$var wire 1 r alu_imm_en $end
$var wire 4 s alu_control [3:0] $end
$scope module CSR $end
$var wire 1 " clk $end
$var wire 32 t csr_mepc [31:0] $end
$var wire 1 u effective_exception $end
$var wire 8 v exception_code [7:0] $end
$var wire 1 w exception_edge $end
$var wire 1 % interrupt $end
$var wire 1 * reset $end
$var wire 32 x pc [31:0] $end
$var wire 32 y mtval_tmp [31:0] $end
$var wire 32 z mcause_tmp [31:0] $end
$var wire 1 { interrupt_allowed $end
$var wire 32 | instr [31:0] $end
$var wire 1 h exception $end
$var wire 1 i csr_wr $end
$var wire 1 j csr_rd $end
$var wire 32 } csr_mtvec [31:0] $end
$var wire 32 ~ csr_data_out [31:0] $end
$var wire 32 !" csr_data_in [31:0] $end
$var wire 2 "" csr_cntrl [1:0] $end
$var wire 12 #" csr_addr [11:0] $end
$var reg 1 $" exception_prev $end
$var reg 32 %" mcause [31:0] $end
$var reg 32 &" mepc [31:0] $end
$var reg 32 '" mie [31:0] $end
$var reg 32 (" mstatus [31:0] $end
$var reg 32 )" mtval [31:0] $end
$var reg 32 *" mtvec [31:0] $end
$upscope $end
$scope module DECODE $end
$var wire 1 " clk $end
$var wire 1 * reset $end
$var wire 32 +" wd [31:0] $end
$var wire 1 F we $end
$var wire 5 ," w_addr [4:0] $end
$var wire 5 -" shamt [4:0] $end
$var wire 5 ." rs2_addr [4:0] $end
$var wire 5 /" rs1_addr [4:0] $end
$var wire 5 0" rd_addr [4:0] $end
$var wire 32 1" rd2_wire [31:0] $end
$var wire 32 2" rd1_wire [31:0] $end
$var wire 32 3" pc_4 [31:0] $end
$var wire 32 4" pc [31:0] $end
$var wire 7 5" opcode [6:0] $end
$var wire 32 6" instruction [31:0] $end
$var wire 32 7" immu_u [31:0] $end
$var wire 32 8" immu_s [31:0] $end
$var wire 32 9" immu_i [31:0] $end
$var wire 32 :" immu_b [31:0] $end
$var wire 32 ;" imms_u [31:0] $end
$var wire 32 <" imms_s [31:0] $end
$var wire 32 =" imms_i [31:0] $end
$var wire 32 >" imms_b [31:0] $end
$var wire 32 ?" imm_u [31:0] $end
$var wire 32 @" imm_s [31:0] $end
$var wire 32 A" imm_j [31:0] $end
$var wire 32 B" imm_i [31:0] $end
$var wire 32 C" imm_b [31:0] $end
$var wire 7 D" funct7 [6:0] $end
$var wire 3 E" funct3 [2:0] $end
$var wire 1 d flushE $end
$var wire 1 F" csr_imm_en $end
$var wire 32 G" csr_imm [31:0] $end
$var parameter 7 H" b_logic $end
$var parameter 7 I" i_logic $end
$var parameter 7 J" l_logic $end
$var parameter 7 K" r_logic $end
$var parameter 7 L" s_logic $end
$var parameter 7 M" sys_logic $end
$var reg 4 N" alu_control [3:0] $end
$var reg 4 O" alu_control_reg [3:0] $end
$var reg 1 r alu_imm_en $end
$var reg 1 P" alu_imm_en_reg $end
$var reg 1 q branch $end
$var reg 1 Q" branch_reg $end
$var reg 12 R" csr_addr [11:0] $end
$var reg 2 S" csr_control [1:0] $end
$var reg 32 T" csr_data [31:0] $end
$var reg 1 j csr_rd $end
$var reg 1 i csr_wr $end
$var reg 1 h exception $end
$var reg 1 g exception_type $end
$var reg 3 U" funct3_out [2:0] $end
$var reg 32 V" imm [31:0] $end
$var reg 32 W" imm_reg [31:0] $end
$var reg 1 ] isa_slct $end
$var reg 1 X" isa_slct_reg $end
$var reg 1 \ jump $end
$var reg 1 Y" jump_reg $end
$var reg 3 Z" mdu_control [2:0] $end
$var reg 3 [" mdu_control_reg [2:0] $end
$var reg 1 Y mem_write $end
$var reg 1 \" mem_write_reg $end
$var reg 32 ]" pc_4_out [31:0] $end
$var reg 32 ^" pc_out [31:0] $end
$var reg 32 _" rd1 [31:0] $end
$var reg 32 `" rd2 [31:0] $end
$var reg 5 a" rd_addr_d [4:0] $end
$var reg 5 b" rd_addr_d_reg [4:0] $end
$var reg 1 H reg_write $end
$var reg 1 c" reg_write_reg $end
$var reg 5 d" rs1_addr_out [4:0] $end
$var reg 5 e" rs2_addr_out [4:0] $end
$var reg 1 f" un_sign $end
$var reg 2 g" wb_cntrl [1:0] $end
$var reg 2 h" wb_cntrl_reg [1:0] $end
$scope module REG_FILE $end
$var wire 5 i" A1 [4:0] $end
$var wire 5 j" A2 [4:0] $end
$var wire 32 k" RD1 [31:0] $end
$var wire 32 l" RD2 [31:0] $end
$var wire 32 m" WD [31:0] $end
$var wire 1 " clk $end
$var wire 1 * res $end
$var wire 1 F we $end
$var wire 5 n" A3 [4:0] $end
$scope begin $ivl_for_loop0 $end
$var integer 32 o" i [31:0] $end
$upscope $end
$upscope $end
$upscope $end
$scope module EXECUTE $end
$var wire 4 p" alu_control [3:0] $end
$var wire 1 r alu_imm_en $end
$var wire 1 q branch $end
$var wire 1 " clk $end
$var wire 32 q" csr_data_in [31:0] $end
$var wire 3 r" funct3_in [2:0] $end
$var wire 32 s" imm [31:0] $end
$var wire 1 ] isa_slct $end
$var wire 1 \ jump $end
$var wire 3 t" mdu_control [2:0] $end
$var wire 1 Y mem_writeD $end
$var wire 32 u" pc [31:0] $end
$var wire 32 v" pc_4 [31:0] $end
$var wire 1 P pc_src $end
$var wire 32 w" rd1 [31:0] $end
$var wire 32 x" rd2 [31:0] $end
$var wire 5 y" rdE [4:0] $end
$var wire 5 z" rd_addr_d [4:0] $end
$var wire 1 H reg_writeD $end
$var wire 1 * reset $end
$var wire 5 {" rs1_addr_in [4:0] $end
$var wire 5 |" rs1_addr_outE [4:0] $end
$var wire 5 }" rs2_addr_in [4:0] $end
$var wire 5 ~" rs2_addr_outE [4:0] $end
$var wire 2 !# wb_controlD [1:0] $end
$var wire 32 "# wb_result_in [31:0] $end
$var wire 1 ; wb_contorlZ $end
$var wire 32 ## pc_target_out [31:0] $end
$var wire 32 $# mdu_src_B [31:0] $end
$var wire 32 %# mdu_src_A [31:0] $end
$var wire 32 &# mdu_result_out [31:0] $end
$var wire 2 '# forwardB [1:0] $end
$var wire 2 (# forwardA [1:0] $end
$var wire 32 )# exe_result_in [31:0] $end
$var wire 32 *# alu_src_B_imm [31:0] $end
$var wire 32 +# alu_src_B [31:0] $end
$var wire 32 ,# alu_src_A [31:0] $end
$var wire 32 -# alu_result_out [31:0] $end
$var reg 3 .# funct3_out [2:0] $end
$var reg 1 X mem_writeM $end
$var reg 32 /# mem_write_data [31:0] $end
$var reg 32 0# pc_4_out [31:0] $end
$var reg 5 1# rdM [4:0] $end
$var reg 1 G reg_writeM $end
$var reg 32 2# result_out [31:0] $end
$var reg 32 3# result_out_reg [31:0] $end
$var reg 2 4# wb_controlM [1:0] $end
$scope module alu $end
$var wire 4 5# ALU_CNTR [3:0] $end
$var wire 32 6# s1 [31:0] $end
$var wire 32 7# s2 [31:0] $end
$var parameter 4 8# ADD $end
$var parameter 4 9# AND $end
$var parameter 4 :# EQ $end
$var parameter 4 ;# GE $end
$var parameter 4 <# GEU $end
$var parameter 4 =# LT $end
$var parameter 4 ># LTU $end
$var parameter 4 ?# NE $end
$var parameter 4 @# OR $end
$var parameter 4 A# SLL $end
$var parameter 4 B# SLT $end
$var parameter 4 C# SLTU $end
$var parameter 4 D# SRA $end
$var parameter 4 E# SRL $end
$var parameter 4 F# SUB $end
$var parameter 4 G# XOR $end
$var reg 32 H# ALU_OUT [31:0] $end
$upscope $end
$scope module mdu $end
$var wire 3 I# funct3 [2:0] $end
$var wire 32 J# s1 [31:0] $end
$var wire 32 K# s2 [31:0] $end
$var wire 64 L# mulhu_result [63:0] $end
$var wire 64 M# mulhsu_result [63:0] $end
$var wire 64 N# mul_result [63:0] $end
$var wire 32 O# d3 [31:0] $end
$upscope $end
$upscope $end
$scope module FETCH $end
$var wire 32 P# branch_target [31:0] $end
$var wire 32 Q# cache_input [31:0] $end
$var wire 1 R# cache_we $end
$var wire 1 " clk $end
$var wire 1 $ cpu_halt $end
$var wire 1 h exception $end
$var wire 32 S# exception_handler_address [31:0] $end
$var wire 1 & load_done $end
$var wire 32 T# loader_addr [31:0] $end
$var wire 32 U# loader_data [31:0] $end
$var wire 1 ) loader_we $end
$var wire 1 P pc_src $end
$var wire 1 * reset $end
$var wire 1 > stallF $end
$var wire 1 ? stallD $end
$var wire 32 V# pc_4_out_reg [31:0] $end
$var wire 32 W# pc [31:0] $end
$var wire 32 X# instruction_out_reg [31:0] $end
$var wire 1 e flushD $end
$var wire 32 Y# cache_w_data [31:0] $end
$var wire 32 Z# cache_w_addr [31:0] $end
$var reg 32 [# instruction_out [31:0] $end
$var reg 32 \# pc_4_out [31:0] $end
$var reg 32 ]# pc_out [31:0] $end
$var reg 32 ^# pc_out_reg [31:0] $end
$scope module I_CACHE $end
$var wire 1 " clk $end
$var wire 32 _# inst_in [31:0] $end
$var wire 32 `# inst_out [31:0] $end
$var wire 32 a# r_addr [31:0] $end
$var wire 1 * reset $end
$var wire 32 b# w_addr [31:0] $end
$var wire 1 R# we $end
$scope begin $ivl_for_loop1 $end
$var integer 32 c# i [31:0] $end
$upscope $end
$upscope $end
$upscope $end
$scope module HAZARD_UNIT $end
$var wire 1 $ cpu_halt $end
$var wire 1 e flushD $end
$var wire 1 d flushE $end
$var wire 1 d# lwstall $end
$var wire 1 P pc_src $end
$var wire 5 e# rdE [4:0] $end
$var wire 5 f# rdM [4:0] $end
$var wire 1 G reg_writeM $end
$var wire 1 ; result_srcE_zer $end
$var wire 5 g# rs1D [4:0] $end
$var wire 5 h# rs1E [4:0] $end
$var wire 5 i# rs2D [4:0] $end
$var wire 5 j# rs2E [4:0] $end
$var wire 1 ? stallD $end
$var wire 1 > stallF $end
$var wire 1 E reg_writeW $end
$var wire 5 k# rdW [4:0] $end
$var reg 2 l# forwardA [1:0] $end
$var reg 2 m# forwardB [1:0] $end
$upscope $end
$scope module MEM $end
$var wire 1 " clk $end
$var wire 32 n# execute_result_in [31:0] $end
$var wire 32 o# execute_result_out [31:0] $end
$var wire 3 p# funct3_in [2:0] $end
$var wire 1 X mem_write $end
$var wire 32 q# mem_write_data [31:0] $end
$var wire 32 r# pc_4 [31:0] $end
$var wire 5 s# rdM [4:0] $end
$var wire 5 t# rdM_hazard_out [4:0] $end
$var wire 1 G reg_write $end
$var wire 1 E reg_write_hazard $end
$var wire 1 * reset $end
$var wire 2 u# wb_controlM [1:0] $end
$var wire 32 v# mem_result_out_temp [31:0] $end
$var reg 32 w# mem_result_out [31:0] $end
$var reg 32 x# pc_4_out [31:0] $end
$var reg 5 y# rdW [4:0] $end
$var reg 1 F reg_write_en $end
$var reg 2 z# wb_control_out [1:0] $end
$var reg 32 {# wb_result_out [31:0] $end
$scope module D_CACHE $end
$var wire 1 " clk $end
$var wire 32 |# data_in [31:0] $end
$var wire 3 }# funct3 [2:0] $end
$var wire 32 ~# r_addr [31:0] $end
$var wire 1 * reset $end
$var wire 32 !$ w_addr [31:0] $end
$var wire 1 X we $end
$var reg 32 "$ data_out [31:0] $end
$var reg 32 #$ merged_data [31:0] $end
$var reg 8 $$ selected_byte [7:0] $end
$var reg 16 %$ selected_half [15:0] $end
$scope begin $ivl_for_loop2 $end
$var integer 32 &$ i [31:0] $end
$upscope $end
$upscope $end
$upscope $end
$upscope $end
$scope task check_dcache $end
$var reg 32 '$ actual [31:0] $end
$var reg 32 ($ expected [31:0] $end
$var reg 256 )$ test_name [255:0] $end
$var reg 32 *$ word_addr [31:0] $end
$upscope $end
$scope task check_reg $end
$var reg 32 +$ actual [31:0] $end
$var reg 32 ,$ expected [31:0] $end
$var reg 5 -$ reg_idx [4:0] $end
$var reg 256 .$ test_name [255:0] $end
$upscope $end
$scope task do_reset $end
$upscope $end
$scope task dump_regs $end
$var integer 32 /$ ri [31:0] $end
$upscope $end
$scope task halt_cpu $end
$upscope $end
$scope task load_instruction $end
$var reg 32 0$ addr [31:0] $end
$var reg 32 1$ instr [31:0] $end
$upscope $end
$scope task load_program $end
$upscope $end
$scope task wait_cycles $end
$var integer 32 2$ n [31:0] $end
$var integer 32 3$ wc [31:0] $end
$upscope $end
$upscope $end
$enddefinitions $end
$comment Show the parameter values. $end
$dumpall
b100 G#
b1 F#
b110 E#
b111 D#
b1001 C#
b1000 B#
b101 A#
b10 @#
b1101 ?#
b1110 >#
b1100 =#
b1111 <#
b1011 ;#
b1010 :#
b11 9#
b0 8#
b1110011 M"
b100011 L"
b110011 K"
b11 J"
b10011 I"
b1100011 H"
$end
#0
$dumpvars
bx 3$
bx 2$
bx 1$
bx 0$
bx /$
bx .$
bx -$
bx ,$
bx +$
bx *$
bx )$
bx ($
bx '$
bx &$
bx %$
bx $$
bx #$
bx "$
bx !$
bx ~#
bx }#
bx |#
bx {#
bx z#
bx y#
bx x#
bx w#
bx v#
bx u#
bx t#
bx s#
bx r#
bx q#
bx p#
bx o#
bx n#
bx m#
bx l#
bx k#
bx j#
bx i#
bx h#
bx g#
bx f#
bx e#
1d#
bx c#
b0xxxxxxxxxxxxxxxxxxxxxxxxxxxxxx b#
b0xxxxxxxxxxxxxxxxxxxxxxxxxxxxxx a#
bx `#
b0 _#
bx ^#
bx ]#
bx \#
bx [#
bx00 Z#
b0 Y#
bx X#
bx W#
bx V#
b0 U#
b0 T#
bx00 S#
xR#
b0 Q#
bx P#
bx O#
bx N#
bx M#
bx L#
bx K#
bx J#
bx I#
bx H#
bx 7#
bx 6#
bx 5#
bx 4#
bx 3#
bx 2#
bx 1#
bx 0#
bx /#
bx .#
bx -#
bx ,#
bx +#
bx *#
bx )#
bx (#
bx '#
bx &#
bx %#
bx $#
bx ##
bx "#
bx !#
bx ~"
bx }"
bx |"
bx {"
bx z"
bx y"
bx x"
bx w"
bx v"
bx u"
bx t"
bx s"
bx r"
bx q"
bx p"
bx o"
bx n"
bx m"
bx l"
bx k"
bx j"
bx i"
bx h"
bx g"
xf"
bx e"
bx d"
xc"
bx b"
bx a"
bx `"
bx _"
bx ^"
bx ]"
x\"
bx ["
bx Z"
xY"
xX"
bx W"
bx V"
bx U"
bx T"
bx S"
bx R"
xQ"
xP"
bx O"
bx N"
b0xxxxx G"
xF"
bx E"
bx D"
b0xxxxxxxxxxxxxxxxxxxxxxxxxxxxxx0 C"
bx B"
bx0 A"
bx @"
bx000000000000 ?"
b0xxxxxxxxxxxxxxxxxxxxxxxxxxxxxx0 >"
bx ="
bx <"
bx000000000000 ;"
b0xxxxxxxxxxx0 :"
b0xxxxxxxxxxxx 9"
b0xxxxxxxxxxxx 8"
bx000000000000 7"
bx 6"
bx 5"
bx 4"
bx 3"
bx 2"
bx 1"
bx 0"
bx /"
bx ."
bx -"
bx ,"
bx +"
bx *"
bx )"
bx ("
bx '"
bx &"
bx %"
x$"
bx #"
bx ""
bx !"
bx ~
bx00 }
bx |
1{
b0x z
b0 y
bx x
xw
b0x v
xu
bz t
bx s
xr
xq
bx p
bx o
bx n
bx m
bx l
bx00 k
xj
xi
xh
xg
bx f
xe
1d
bx c
bx b
bx a
bx `
bx _
bx ^
x]
x\
bx [
bx Z
xY
xX
bx W
bx V
bx U
bx T
bx S
bx R
bx Q
xP
bx O
bx N
bx M
bx L
bx K
bx J
bx I
xH
xG
xF
xE
bx D
bx C
bx B
bx A
bx @
1?
1>
bx =
bx <
x;
bx :
bx 9
bx 8
b0 7
b0 6
bz 5
bz 4
b0 3
bx 2
bx 1
bx 0
b0 /
b0 .
b0 -
b0 ,
bx +
1*
0)
b0 (
b0 '
0&
0%
1$
b0 #
0"
bz !
$end
#5
b0 l
b0 ~
b0 q"
b0 b#
b0 &#
b0 O#
b0 Z#
b0 X#
b0 `#
b0 a#
b0x00 W#
b0 L#
b0 M#
b0 k
b0 }
b0 S#
0e
0P
b0 3#
0;
b0 -#
b0 H#
b0 *#
b0 7#
b0 +#
b0 N#
b0 $#
b0 K#
b0xxxxx m
b0xxxxx !"
b0xxxxx T"
b0 ,#
b0 6#
b0 %#
b0 J#
b0 v#
b0 "$
b0 %$
b0 $$
b0 #$
b0 b
b0 '#
b0 m#
b0 c
b0 (#
b0 l#
b0 9
b0 +"
b0 m"
b0 "#
b100 V#
b0 ^#
b0 a
b0 U"
b0 r"
b0 T
b0 ]"
b0 v"
b0 @
b0 ~"
b0 j#
b0 A
b0 e"
b0 }"
b0 i#
b0 B
b0 |"
b0 h#
b0 C
b0 d"
b0 {"
b0 g#
b0 p
b0 ##
b0 P#
b0 R
b0 x
b0 ^"
b0 u"
0\
0q
0Y
0H
0]
b0 =
b0 g"
b0 !#
b0 [
b0 Z"
b0 t"
b0 I#
0r
b0 s
b0 N"
b0 p"
b0 5#
b0 _
b0 V"
b0 s"
b0 M
b0 y"
b0 e#
b0 I
b0 a"
b0 z"
b0 N
b0 `"
b0 x"
b0 O
b0 _"
b0 w"
b0 `
b0 .#
b0 p#
b0 }#
b0 V
b0 0#
b0 r#
b0 <
b0 4#
b0 u#
0X
0E
0G
b0 K
b0 t#
b0 L
b0 1#
b0 f#
b0 s#
b0 W
b0 /#
b0 q#
b0 |#
b0 f
b0 )#
b0 o#
b0 D
b0 2#
b0 n#
b0 ~#
b0 !$
b0 U
b0 x#
b0 8
b0 {#
b0 Z
b0 w#
b0 J
b0 ,"
b0 n"
b0 k#
b0 y#
b0 :
b0 z#
0F
b0 )"
b0 %"
b0 &"
b0 *"
b0 '"
b0 ("
0$"
b100000000000 &$
b100000 o"
b100000000000 c#
1"
#10
0"
#15
b100000000000 &$
b100000 o"
b100000000000 c#
1"
#20
0"
#25
b100000000000 &$
b100000 o"
b100000000000 c#
1"
#30
0"
#35
b100000000000 &$
b100000 o"
b100000000000 c#
1"
#40
0"
#45
b100000000000 &$
b100000 o"
b100000000000 c#
1"
#50
0*
0"
#55
x$"
1"
#60
0"
#65
b1000 ,
1"
#70
0"
#75
b101000000000000010010011 1$
b1100000000000 0$
b0 +
1"
#80
b11000000000 b#
1R#
b1100000000000 Z#
b101000000000000010010011 Y#
b101000000000000010010011 _#
1)
b101000000000000010010011 (
b101000000000000010010011 7
b101000000000000010010011 U#
b1100000000000 '
b1100000000000 6
b1100000000000 T#
0"
#85
1"
#90
b0 b#
xR#
b0 Z#
b0 Y#
b0 _#
b1010000000000000100010011 1$
b1100000000100 0$
b1 +
0)
0"
#95
1"
#100
b11000000001 b#
1R#
b1100000000100 Z#
b1010000000000000100010011 Y#
b1010000000000000100010011 _#
1)
b1010000000000000100010011 (
b1010000000000000100010011 7
b1010000000000000100010011 U#
b1100000000100 '
b1100000000100 6
b1100000000100 T#
0"
#105
1"
#110
b0 b#
xR#
b0 Z#
b0 Y#
b0 _#
b11111111101100000000000110010011 1$
b1100000001000 0$
b10 +
0)
0"
#115
1"
#120
b11000000010 b#
1R#
b1100000001000 Z#
b11111111101100000000000110010011 Y#
b11111111101100000000000110010011 _#
1)
b11111111101100000000000110010011 (
b11111111101100000000000110010011 7
b11111111101100000000000110010011 U#
b1100000001000 '
b1100000001000 6
b1100000001000 T#
0"
#125
1"
#130
b0 b#
xR#
b0 Z#
b0 Y#
b0 _#
b110010000000000001010010011 1$
b1100000001100 0$
b11 +
0)
0"
#135
1"
#140
b11000000011 b#
1R#
b1100000001100 Z#
b110010000000000001010010011 Y#
b110010000000000001010010011 _#
1)
b110010000000000001010010011 (
b110010000000000001010010011 7
b110010000000000001010010011 U#
b1100000001100 '
b1100000001100 6
b1100000001100 T#
0"
#145
1"
#150
b0 b#
xR#
b0 Z#
b0 Y#
b0 _#
b10011 1$
b1100000010000 0$
b100 +
0)
0"
#155
1"
#160
b11000000100 b#
1R#
b1100000010000 Z#
b10011 Y#
b10011 _#
1)
b10011 (
b10011 7
b10011 U#
b1100000010000 '
b1100000010000 6
b1100000010000 T#
0"
#165
1"
#170
b0 b#
xR#
b0 Z#
b0 Y#
b0 _#
b1100000010100 0$
b101 +
0)
0"
#175
1"
#180
b11000000101 b#
1R#
b1100000010100 Z#
b10011 Y#
b10011 _#
1)
b1100000010100 '
b1100000010100 6
b1100000010100 T#
0"
#185
1"
#190
b0 b#
xR#
b0 Z#
b0 Y#
b0 _#
b1100000011000 0$
b110 +
0)
0"
#195
1"
#200
b11000000110 b#
1R#
b1100000011000 Z#
b10011 Y#
b10011 _#
1)
b1100000011000 '
b1100000011000 6
b1100000011000 T#
0"
#205
1"
#210
b0 b#
xR#
b0 Z#
b0 Y#
b0 _#
b1100000011100 0$
b111 +
0)
0"
#215
1"
#220
b11000000111 b#
1R#
b1100000011100 Z#
b10011 Y#
b10011 _#
1)
b1100000011100 '
b1100000011100 6
b1100000011100 T#
0"
#225
1"
#230
b0 b#
xR#
b0 Z#
b0 Y#
b0 _#
b1000 +
0)
0"
#235
1"
#240
0d
0?
0>
0d#
0$
1&
0"
#245
b0 C"
b0 :"
b0 >"
0w
b0 A"
0R#
0u
b0 ?"
b0 @"
b0 B"
x?
x>
xd#
b0 z
b101000000000000010010011 X#
b101000000000000010010011 `#
b11000000000 a#
bx W#
b0 G"
b0 7"
b0 8"
b0 9"
b0 ;"
b0 <"
b0 ="
b0 1"
b0 l"
b0 2"
b0 k"
0F"
0i
0j
0h
0X"
b0 b"
b0 h"
0Y"
0Q"
0\"
0c"
0P"
b0 W"
b0 n
b0 ""
b0 S"
b0 ["
b0 O"
xd
bx *#
bx 7#
b0 v
bx L#
bx M#
b0 ."
b0 j"
b0 /"
b0 i"
b0 0"
b0 -"
b0 D"
b0 E"
b0 5"
0f"
xe
xP
bx 3#
x;
bx &#
bx O#
bx +#
bx $#
bx K#
b0 o
b0 #"
b0 R"
bx m
bx !"
bx T"
0g
bx ,#
bx 6#
bx N#
bx %#
bx J#
b1100000000100 V#
b1100000000000 ^#
b0 ^
b0 |
b0 6"
b0 [#
b0 Q
b0 4"
b0 ]#
b100 S
b100 3"
b100 \#
bx a
bx U"
bx r"
bx T
bx ]"
bx v"
bx @
bx ~"
bx j#
bx A
bx e"
bx }"
bx i#
bx B
bx |"
bx h#
bx C
bx d"
bx {"
bx g#
bx R
bx x
bx ^"
bx u"
x\
xq
xY
xH
x]
bx =
bx g"
bx !#
bx [
bx Z"
bx t"
bx I#
xr
bx s
bx N"
bx p"
bx 5#
bx p
bx ##
bx P#
bx _
bx V"
bx s"
bx M
bx y"
bx e#
bx I
bx a"
bx z"
bx N
bx `"
bx x"
bx O
bx _"
bx w"
1"
#250
b0 3$
b10100 2$
0&
0"
#255
0d
0?
0>
0d#
b0 &#
b0 O#
b1100000000100 W#
b0 L#
b0 M#
bx v#
bx "$
bx #$
0e
0P
b0 3#
0;
b0 *#
b0 7#
b0 +#
b0 N#
b0 $#
b0 K#
b0 m
b0 !"
b0 T"
b0 ,#
b0 6#
b0 %#
b0 J#
0$"
bx `
bx .#
bx p#
bx }#
bx V
bx 0#
bx r#
bx <
bx 4#
bx u#
xX
xE
xG
bx K
bx t#
bx L
bx 1#
bx f#
bx s#
bx W
bx /#
bx q#
bx |#
bx f
bx )#
bx o#
bx D
bx 2#
bx n#
bx ~#
bx !$
b0 a
b0 U"
b0 r"
b100 T
b100 ]"
b100 v"
b0 @
b0 ~"
b0 j#
b0 A
b0 e"
b0 }"
b0 i#
b0 B
b0 |"
b0 h#
b0 C
b0 d"
b0 {"
b0 g#
b0 p
b0 ##
b0 P#
b0 R
b0 x
b0 ^"
b0 u"
0\
0q
0Y
0H
0]
b0 =
b0 g"
b0 !#
b0 [
b0 Z"
b0 t"
b0 I#
0r
b0 s
b0 N"
b0 p"
b0 5#
b0 _
b0 V"
b0 s"
b0 M
b0 y"
b0 e#
b0 I
b0 a"
b0 z"
b0 N
b0 `"
b0 x"
b0 O
b0 _"
b0 w"
b1 3$
1"
#260
0"
#265
b100000000000 C"
b100000000000 :"
b100000000000 >"
b1010 W"
b1010 A"
b101000000000000000000000 ?"
b1 @"
b1010 B"
b1010000000000000100010011 X#
b1010000000000000100010011 `#
b11000000001 a#
b1100000001000 W#
b101000000000000000000000 7"
b1 8"
b1010 9"
b101000000000000000000000 ;"
b1 <"
b1010 ="
b1 b"
1c"
1P"
b1010 ."
b1010 j"
b1 0"
b1010 -"
b10011 5"
b1010 o
b1010 #"
b1010 R"
b0 v#
b0 "$
b0 #$
bx 9
bx +"
bx m"
bx "#
b1100000001000 V#
b1100000000100 ^#
b101000000000000010010011 ^
b101000000000000010010011 |
b101000000000000010010011 6"
b101000000000000010010011 [#
b1100000000000 Q
b1100000000000 4"
b1100000000000 ]#
b1100000000100 S
b1100000000100 3"
b1100000000100 \#
b0 `
b0 .#
b0 p#
b0 }#
b100 V
b100 0#
b100 r#
b0 <
b0 4#
b0 u#
0X
0E
0G
b0 K
b0 t#
b0 L
b0 1#
b0 f#
b0 s#
b0 W
b0 /#
b0 q#
b0 |#
b0 f
b0 )#
b0 o#
b0 D
b0 2#
b0 n#
b0 ~#
b0 !$
bx U
bx x#
bx 8
bx {#
bx Z
bx w#
bx J
bx ,"
bx n"
bx k#
bx y#
bx :
bx z#
xF
b10 3$
1"
#270
0"
