CPU/TEST_BENCH/PROGRAM_LOADER_TB.vcd
$date
	Sat May 23 01:45:17 2026
$end
$version
	Icarus Verilog
$end
$timescale
	1s
$end
$scope module PROGRAM_LOADER_TB $end
$var wire 32 ! write_ptr [31:0] $end
$var wire 1 " we $end
$var wire 32 # w_data [31:0] $end
$var wire 32 $ w_addr [31:0] $end
$var wire 1 % done $end
$var wire 1 & cpu_halt $end
$var wire 1 ' clear $end
$var parameter 32 ( DATA_S $end
$var parameter 32 ) DATA_U $end
$var parameter 32 * DONE_ST $end
$var parameter 32 + LOAD_S $end
$var parameter 32 , LOAD_U $end
$var parameter 32 - PC_TRANSFER_S $end
$var parameter 32 . PC_TRANSFER_U $end
$var parameter 32 / STALL $end
$var parameter 32 0 START_S $end
$var parameter 32 1 START_U $end
$var parameter 32 2 WAIT_ACK_S $end
$var parameter 32 3 WAIT_ACK_U $end
$var reg 1 4 busy_spi $end
$var reg 1 5 busy_uart $end
$var reg 1 6 clk $end
$var reg 8 7 data_in_spi [7:0] $end
$var reg 8 8 data_in_uart [7:0] $end
$var reg 1 9 data_ready_spi $end
$var reg 1 : data_ready_uart $end
$var reg 1 ; done_seen $end
$var reg 1 < reset $end
$var integer 32 = test_fail [31:0] $end
$var integer 32 > test_pass [31:0] $end
$scope module uut $end
$var wire 1 4 busy_spi $end
$var wire 1 5 busy_uart $end
$var wire 1 6 clk $end
$var wire 8 ? data_in_spi [7:0] $end
$var wire 8 @ data_in_uart [7:0] $end
$var wire 1 9 data_ready_spi $end
$var wire 1 : data_ready_uart $end
$var wire 1 < reset $end
$var parameter 32 A DATA_S $end
$var parameter 32 B DATA_U $end
$var parameter 32 C DONE $end
$var parameter 32 D LOAD_S $end
$var parameter 32 E LOAD_U $end
$var parameter 32 F PC_TRANSFER_S $end
$var parameter 32 G PC_TRANSFER_U $end
$var parameter 32 H STALL $end
$var parameter 32 I START_S $end
$var parameter 32 J START_U $end
$var parameter 32 K WAIT_ACK_S $end
$var parameter 32 L WAIT_ACK_U $end
$var reg 1 ' clear $end
$var reg 1 & cpu_halt $end
$var reg 32 M data_temp [31:0] $end
$var reg 1 % done $end
$var reg 4 N state [3:0] $end
$var reg 32 O w_addr [31:0] $end
$var reg 32 P w_data [31:0] $end
$var reg 2 Q wait_for_data [1:0] $end
$var reg 1 " we $end
$var reg 32 R write_ptr [31:0] $end
$upscope $end
$scope task check $end
$var reg 32 S actual [31:0] $end
$var reg 32 T expected [31:0] $end
$var reg 256 U name [255:0] $end
$upscope $end
$scope task check_1bit $end
$var reg 1 V actual $end
$var reg 1 W expected $end
$var reg 256 X name [255:0] $end
$upscope $end
$scope task send_byte_spi $end
$var reg 8 Y byte_val [7:0] $end
$upscope $end
$scope task send_byte_uart $end
$var reg 8 Z byte_val [7:0] $end
$upscope $end
$scope task send_word_spi $end
$var reg 1 [ is_last_word $end
$var reg 32 \ word_val [31:0] $end
$upscope $end
$scope task send_word_uart $end
$var reg 1 ] is_last_word $end
$var reg 32 ^ word_val [31:0] $end
$upscope $end
$upscope $end
$enddefinitions $end
$comment Show the parameter values. $end
$dumpall
b11 L
b1001 K
b1 J
b111 I
b0 H
b101 G
b1011 F
b100 E
b1010 D
b110 C
b10 B
b1000 A
b11 3
b1001 2
b1 1
b111 0
b0 /
b101 .
b1011 -
b100 ,
b1010 +
b110 *
b10 )
b1000 (
$end
#0
$dumpvars
bx ^
x]
bx \
x[
bx Z
bx Y
bx X
xW
xV
bx U
bx T
bx S
bx R
bx Q
bx P
bx O
bx N
bx M
b0 @
b0 ?
b0 >
b0 =
1<
x;
0:
09
b0 8
b0 7
06
05
04
x'
x&
x%
bx $
bx #
x"
bx !
$end
#5
0%
b0 M
b0 Q
0"
0'
0&
b1100000000000 !
b1100000000000 R
b0 N
0;
16
#10
06
#15
16
#20
06
#25
16
#30
06
#35
16
#40
0<
06
#45
16
#50
06
#55
b11101111 Z
0]
b11011110101011011011111011101111 ^
b1100000000000 T
b1100000000000 S
b11101110111001001101001011101000110010101011111011100000111010001110010 U
b100 >
0W
0V
b1100100011011110110111001100101 X
16
#60
15
1:
b11101111 8
b11101111 @
06
#65
b1 N
16
#70
06
#75
1&
b10 N
16
#80
06
#85
b11 N
1'
b1 Q
b11101111 M
16
#90
0:
06
#95
b10 N
0'
16
#100
06
#105
b10111110 Z
16
#110
1:
b10111110 8
b10111110 @
06
#115
b11 N
1'
b10 Q
b1011111011101111 M
16
#120
0:
06
#125
b10 N
0'
16
#130
06
#135
b10101101 Z
16
#140
1:
b10101101 8
b10101101 @
06
#145
b11 N
1'
b11 Q
b101011011011111011101111 M
16
#150
0:
06
#155
b10 N
0'
16
#160
06
#165
b11011110 Z
16
#170
1:
b11011110 8
b11011110 @
06
#175
b11 N
1'
b0 Q
b11011110101011011011111011101111 M
16
#180
0:
06
#185
b100 N
0'
16
#190
06
#195
b101 N
1"
b11011110101011011011111011101111 #
b11011110101011011011111011101111 P
b1100000000000 $
b1100000000000 O
16
#200
06
#205
b1100000000100 !
b1100000000100 R
b10 N
0"
16
#210
06
#215
16
#220
06
#225
16
#230
06
#235
16
#240
06
#245
b10111110 Z
b11001010111111101011101010111110 ^
16
#250
1:
b10111110 8
b10111110 @
06
#255
b11 N
1'
b1 Q
b11011110101011011011111010111110 M
16
#260
0:
06
#265
b10 N
0'
16
#270
06
#275
b10111010 Z
16
#280
1:
b10111010 8
b10111010 @
06
#285
b11 N
1'
b10 Q
b11011110101011011011101010111110 M
16
#290
0:
06
#295
b10 N
0'
16
#300
06
#305
b11111110 Z
16
#310
1:
b11111110 8
b11111110 @
06
#315
b11 N
1'
b11 Q
b11011110111111101011101010111110 M
16
#320
0:
06
#325
b10 N
0'
16
#330
06
#335
b11001010 Z
16
#340
1:
b11001010 8
b11001010 @
06
#345
b11 N
1'
b0 Q
b11001010111111101011101010111110 M
16
#350
0:
06
#355
b100 N
0'
16
#360
06
#365
b101 N
1"
b11001010111111101011101010111110 #
b11001010111111101011101010111110 P
b1100000000100 $
b1100000000100 O
16
#370
06
#375
b1100000001000 !
b1100000001000 R
b10 N
0"
16
#380
06
#385
16
#390
06
#395
16
#400
06
#405
16
#410
06
#415
b1111000 Z
1]
b10010001101000101011001111000 ^
16
#420
1:
b1111000 8
b1111000 @
06
#425
b11 N
1'
b1 Q
b11001010111111101011101001111000 M
16
#430
0:
06
#435
b10 N
0'
16
#440
06
#445
b1010110 Z
16
#450
1:
b1010110 8
b1010110 @
06
#455
b11 N
1'
b10 Q
b11001010111111100101011001111000 M
16
#460
0:
06
#465
b10 N
0'
16
#470
06
#475
b110100 Z
16
#480
1:
b110100 8
b110100 @
06
#485
b11 N
1'
b11 Q
b11001010001101000101011001111000 M
16
#490
0:
06
#495
b10 N
0'
16
#500
06
#505
b10010 Z
16
#510
1:
b10010 8
b10010 @
06
#515
b11 N
1'
b0 Q
b10010001101000101011001111000 M
16
#520
0:
06
#525
b100 N
0'
16
#530
06
#535
b101 N
1"
b10010001101000101011001111000 #
b10010001101000101011001111000 P
b1100000001000 $
b1100000001000 O
16
#540
05
06
#545
b110 N
0"
16
#550
06
#555
b0 N
0&
1%
16
#560
06
#565
0%
1;
16
#570
06
#575
16
#580
06
#585
16
#590
06
#595
16
#600
06
#605
16
#610
06
#615
16
#620
06
#625
16
#630
06
#635
16
#640
06
#645
16
#650
06
#655
16
#660
06
#665
16
#670
06
#675
16
#680
06
#685
1W
1V
b11001000110111101101110011001010101111101110011011001010110010101101110 X
b1000 >
b10010001101000101011001111000 T
b10010001101000101011001111000 S
b11000110110000101100011011010000110010101011011010101010100000101010010010101000101111101000001010001000100010001010010001010110011100001011101 U
16
#690
06
#695
16
#700
06
#705
16
#710
06
#715
16
#720
06
#725
16
#730
06
#735
b10111011 Y
0[
b10101010101010101011101110111011 \
b1001 >
0W
0V
b110001101110000011101010101111101101000011000010110110001110100 X
16
#740
14
19
b10111011 7
b10111011 ?
06
#745
b1110000000000 !
b1110000000000 R
b111 N
16
#750
06
#755
0;
1&
b1000 N
16
#760
06
#765
b1001 N
b1 Q
b10010001101000101011010111011 M
16
#770
09
06
#775
b1000 N
16
#780
06
#785
16
#790
19
06
#795
b1001 N
b10 Q
b10010001101001011101110111011 M
16
#800
09
06
#805
b1000 N
16
#810
06
#815
b10101010 Y
16
#820
19
b10101010 7
b10101010 ?
06
#825
b1001 N
b11 Q
b10010101010101011101110111011 M
16
#830
09
06
#835
b1000 N
16
#840
06
#845
16
#850
19
06
#855
b1001 N
b0 Q
b10101010101010101011101110111011 M
16
#860
09
06
#865
b1010 N
16
#870
06
#875
b1011 N
1"
b10101010101010101011101110111011 #
b10101010101010101011101110111011 P
b1110000000000 $
b1110000000000 O
16
#880
06
#885
b1110000000100 !
b1110000000100 R
b1000 N
0"
16
#890
06
#895
16
#900
06
#905
16
#910
06
#915
16
#920
06
#925
b11011101 Y
1[
b11001100110011001101110111011101 \
16
#930
19
b11011101 7
b11011101 ?
06
#935
b1001 N
b1 Q
b10101010101010101011101111011101 M
16
#940
09
06
#945
b1000 N
16
#950
06
#955
16
#960
19
06
#965
b1001 N
b10 Q
b10101010101010101101110111011101 M
16
#970
09
06
#975
b1000 N
16
#980
06
#985
b11001100 Y
16
#990
19
b11001100 7
b11001100 ?
06
#995
b1001 N
b11 Q
b10101010110011001101110111011101 M
16
#1000
09
06
#1005
b1000 N
16
#1010
06
#1015
16
#1020
19
06
#1025
b1001 N
b0 Q
b11001100110011001101110111011101 M
16
#1030
09
06
#1035
b1010 N
16
#1040
06
#1045
b1011 N
1"
b11001100110011001101110111011101 #
b11001100110011001101110111011101 P
b1110000000100 $
b1110000000100 O
16
#1050
04
06
#1055
b110 N
0"
16
#1060
06
#1065
b0 N
0&
1%
16
#1070
06
#1075
1;
0%
16
#1080
06
#1085
16
#1090
06
#1095
16
#1100
06
#1105
16
#1110
06
#1115
16
#1120
06
#1125
16
#1130
06
#1135
16
#1140
06
#1145
16
#1150
06
#1155
16
#1160
06
#1165
16
#1170
06
#1175
16
#1180
06
#1185
16
#1190
06
#1195
1W
1V
b11001000110111101101110011001010101111101110011011001010110010101101110 X
b1100 >
b11001100110011001101110111011101 T
b11001100110011001101110111011101 S
b110001101100001011000110110100001100101010110110101001101010000010010010101111101000001010001000100010001010010001010110011010001011101 U
16
#1200
06
#1205
16
#1210
06
#1215
16
#1220
06
#1225
16
#1230
06
#1235
16
#1240
06
#1245
b1000100 Z
b10001001000100011001101000100 ^
b1101 >
0W
0V
b110001101110000011101010101111101101000011000010110110001110100 X
16
#1250
15
1:
b1000100 8
b1000100 @
06
#1255
b1100000000000 !
b1100000000000 R
b1 N
16
#1260
06
#1265
1&
b10 N
0;
16
#1270
06
#1275
b11 N
1'
b1 Q
b11001100110011001101110101000100 M
16
#1280
0:
06
#1285
b10 N
0'
16
#1290
06
#1295
b110011 Z
16
#1300
1:
b110011 8
b110011 @
06
#1305
b11 N
1'
b10 Q
b11001100110011000011001101000100 M
16
#1310
0:
06
#1315
b10 N
0'
16
#1320
06
#1325
b100010 Z
16
#1330
1:
b100010 8
b100010 @
06
#1335
b11 N
1'
b11 Q
b11001100001000100011001101000100 M
16
#1340
0:
06
#1345
b10 N
0'
16
#1350
06
#1355
b10001 Z
16
#1360
1:
b10001 8
b10001 @
06
#1365
b11 N
1'
b0 Q
b10001001000100011001101000100 M
16
#1370
0:
06
#1375
b100 N
0'
16
#1380
06
#1385
b101 N
1"
b10001001000100011001101000100 #
b10001001000100011001101000100 P
b1100000000000 $
b1100000000000 O
16
#1390
05
06
#1395
b110 N
0"
16
#1400
06
#1405
b0 N
0&
1%
16
#1410
06
#1415
1;
0%
16
#1420
06
#1425
16
#1430
06
#1435
16
#1440
06
#1445
16
#1450
06
#1455
16
#1460
06
#1465
16
#1470
06
#1475
16
#1480
06
#1485
16
#1490
06
#1495
16
#1500
06
#1505
16
#1510
06
#1515
16
#1520
06
#1525
16
#1530
06
#1535
b10001000 Y
b1010101011001100111011110001000 \
0W
0V
b110001101110000011101010101111101101000011000010110110001110100 X
b10000 >
b10001001000100011001101000100 T
b10001001000100011001101000100 S
b11000110110000101100011011010000110010101011011010101010100000101010010010101000101111101000001010001000100010001010010001010110011000001011101 U
16
#1540
14
19
b10001000 7
b10001000 ?
06
#1545
b1110000000000 !
b1110000000000 R
b111 N
16
#1550
06
#1555
0;
1&
b1000 N
16
#1560
06
#1565
b1001 N
b1 Q
b10001001000100011001110001000 M
16
#1570
09
06
#1575
b1000 N
16
#1580
06
#1585
b1110111 Y
16
#1590
19
b1110111 7
b1110111 ?
06
#1595
b1001 N
b10 Q
b10001001000100111011110001000 M
16
#1600
09
06
#1605
b1000 N
16
#1610
06
#1615
b1100110 Y
16
#1620
19
b1100110 7
b1100110 ?
06
#1625
b1001 N
b11 Q
b10001011001100111011110001000 M
16
#1630
09
06
#1635
b1000 N
16
#1640
06
#1645
b1010101 Y
16
#1650
19
b1010101 7
b1010101 ?
06
#1655
b1001 N
b0 Q
b1010101011001100111011110001000 M
16
#1660
09
06
#1665
b1010 N
16
#1670
06
#1675
b1011 N
1"
b1010101011001100111011110001000 #
b1010101011001100111011110001000 P
b1110000000000 $
b1110000000000 O
16
#1680
04
06
#1685
b110 N
0"
16
#1690
06
#1695
b0 N
0&
1%
16
#1700
06
#1705
0%
1;
16
#1710
06
#1715
16
#1720
06
#1725
16
#1730
06
#1735
16
#1740
06
#1745
16
#1750
06
#1755
16
#1760
06
#1765
16
#1770
06
#1775
16
#1780
06
#1785
16
#1790
06
#1795
16
#1800
06
#1805
16
#1810
06
#1815
16
#1820
06
#1825
0W
0V
b110001101110000011101010101111101101000011000010110110001110100 X
b10011 >
b1010101011001100111011110001000 T
b1010101011001100111011110001000 S
b110001101100001011000110110100001100101010110110101001101010000010010010101111101000001010001000100010001010010001010110011000001011101 U
16
#1830
06
#1835
16
#1840
06
#1845
16
#1850
06
#1855
16
#1860
06
#1865
16
#1870
06
#1875
16
#1880
15
1:
b10101010 8
b10101010 @
06
#1885
b1100000000000 !
b1100000000000 R
b1 N
16
#1890
06
#1895
0;
1&
b10 N
b10100 >
b1100000000000 T
b1100000000000 S
b11101110111001001101001011101000110010101011111011100000111010001110010 U
16
#1900
05
0:
06
#1905
16
#1910
1<
06
#1915
b0 M
0&
b0 N
16
#1920
06
#1925
16
#1930
06
#1935
16
#1940
06
#1945
16
#1950
0<
06
#1955
16
#1960
06
#1965
16
#1970
14
15
19
1:
b0 8
b0 @
b11111111 7
b11111111 ?
06
#1975
b1 N
16
#1980
06
#1985
1&
b10 N
b10110 >
b11101110111001001101001011101000110010101011111011100000111010001110010001000000010100001010101010000010101001001010100001000000111011101101001011011100111001100101001 U
16
#1990
04
05
09
0:
06
#1995
16
#2000
1<
06
#2005
0&
b0 N
16
#2010
06
#2015
16
#2020
06
#2025
16
#2030
06
#2035
16
#2040
0<
06
